{
  "ADMIN": {
    "ADD": "ADD",
    "ADDITIONALREPCODE(S)": "ADDITIONAL REP CODE (S)",
    "ADDITIONALREPCODES": "ADDITIONAL REP CODES",
    "ADDMARGIN": "ADD MARGIN",
    "ADDMARGINLIMITMESSAGE1": "Margins will be updated to all products under",
    "ADDMARGINLIMITMESSAGE2": "Are you sure you want to proceed?",
    "ADDMARGINLIMITMESSAGE3": "Existing margin limit will overwritten.",
    "ADDMARGINLIMITTOAPRODUCT": "Add Margin Limit to a product",
    "ADDMARGINLIMITTOCLASS": "Add Margin Limit to class",
    "ADDMARGINLIMITTOPRODUCTLINE": "Add Margin Limit to product line",
    "ADDMOREBRANCHES/ROLES": "Add more depots/roles",
    "ADDUSER": "Add User",
    "ADDUSERS": "Add Users",
    "APPLY": "Apply",
    "AREYOSUREYOUWANTTOPROCEED": ". Are you sure you want to proceed?",
    "BRANCH": "DEPOT",
    "BRANCHES": "Depots",
    "CANCEL": "Cancel",
    "CANCEL-UC": "CANCEL",
    "CHOOSEABRANCH": "Choose a depot",
    "CHOOSEAROLE": "Choose a role",
    "CHOOSEAUSERSTATE": "Choose a user state",
    "CHOOSEAWAREHOUSE": "Choose a depot",
    "CLASS": "Class",
    "CLASS-UC": "CLASS",
    "CODE": "Code",
    "DEFAULTREPCODES": "DEFAULT REP CODE",
    "DELETE": "DELETE",
    "DELETEMARGINLIMITMESSAGE": "Existing margin limit will be cleared for ",
    "DELETEUSERMESSAGE": "Are you sure you want to deactivate",
    "EDIT": "EDIT",
    "EDITACCOUNT": "Edit Account",
    "EDITUSER": "Edit user",
    "EMAIL": "EMAIL",
    "ENTERBRANCH": "Enter Depot",
    "ENTERCHARACTER": "Please, enter at least one character.",
    "ENTERNAME": "Enter name",
    "ENTERREPCODE": "Enter Rep Code",
    "ENTERROLE": "Enter Role",
    "ENTERVALIDEMAIL": "Enter valid email",
    "ENTERWAREHOUSEACCOUNT": "Enter depot account",
    "EXISTINGMARGINLIMITWILLBECLEAREDFOR": "Existing margin limit will be cleared for ",
    "EXISTINGMARGINLIMITWILLBECLEAREDFORALLPRODUCTS": "Existing margin limit will be cleared for all products under ",
    "EXISTINGMARGINLIMITWILLBEOVERWRITTEN": "Existing margin limit will overwritten. Are you sure you want to proceed?",
    "GENERICACCOUNT": "Generic Account",
    "GENERICACCOUNT-UC": "GENERIC ACCOUNT",
    "INACTIVATE": "INACTIVATE",
    "INCEXCINACTIVEUSER-LC": "Inc./Exc. Inactive users",
    "INCEXCINACTIVEUSER-UC": "INC./EXC. EXPIRED",
    "INFORMATION-NA": "Information N/A",
    "INVALIDVALUE": "Invalid value",
    "MANAGEUSER": "Manage User",
    "MANAGEUSER-UC": "MANAGE USER",
    "MARGINLIMIT": "Margin Limit",
    "MARGINLIMIT-UC": "MARGIN LIMIT",
    "MARGINLIMITCLEARED": "Margin limit is cleared",
    "MARGINSWILLBEUPDATEDTOALLPRODUCTSUNDER": "Margins will be updated to all products under ",
    "MARGINUPDATED": "Margin limit has been updated.",
    "MARGINWILLBEAPPLIEDTOTHISPRODUCTONLY": "Margins will be applied to this product only. Existing margin limit will overwritten. Are you sure you want to proceed?",
    "MUSTHAVEAEMAILADDRESS": "Must have a email address",
    "MUSTHAVEANACCOUNT": "Must have an account",
    "NAME": "Name",
    "NAME-UC": "NAME",
    "NO": "No",
    "NOCLASSFOUND": "No classes found.",
    "NOGENERICFOUND": "No generic accounts found.",
    "NOPRODUCTFOUND": "No products found for this search criteria.",
    "NOPRODUCTLINESFOUND": "No product lines found.",
    "NOPRODUCTSFOUND": "No Products found.",
    "NOREPCODES": "No Rep Code",
    "NOTREQUIRED": "Not required",
    "NOUSERSFOUND": "No users found.",
    "NOWAREHOUSEFOUND": "No depots found.",
    "PHONE": "PHONE",
    "PRICINGEMAILADDRESS": "PRICING EMAIL ADDRESS",
    "PRICINGTEAMEMAIL": "PRICING TEAM EMAIL",
    "PRODUCT": "Product",
    "PRODUCT-UC": "PRODUCT",
    "PROUDCTLINE": "Product Line",
    "PROUDCTLINE-UC": "PRODUCT LINE",
    "REACTIVATE": "REACTIVATE",
    "REACTIVATEUSERMESSAGE": "Are you sure you want to reactivate this user?",
    "REMOVEOTHERROLESERRORMESSAGE": "role is selected. Please remove other roles before saving.",
    "REPCODE": "REP CODE",
    "ROLE": "ROLE",
    "ROLE-LC": "Role",
    "ROLES": "Roles",
    "SAVE": "Save",
    "SAVE-UC": "SAVE",
    "SEARCH": "Search",
    "SUCCESSFULLYDELETEUSER": "successfully deleted from the system.",
    "SUCCESSFULLYREACTIVATEUSER": "successfully reactivated from the system.",
    "THISBRANCHISALREADYSELECTED": "This depot is already selected",
    "USERROLE": "USER ROLE",
    "WAREHOUSE": "Depot",
    "WAREHOUSE-UC": "DEPOT",
    "WAREHOUSES": "DEPOTS",
    "YES": "Yes"
  },
  "ALL": "All",
  "All products are added from selected invoice or selected invoice number is wrong": "All products are added from selected invoice or selected invoice number is wrong.",
  "Are you sure you want to delete this Contact": "Are you sure you want to delete this Contact?",
  "BASKET": {
    "BASKET": "Basket",
    "BASKET-UC": "BASKET",
    "BASKETUPDATED": "Basket updated",
    "CHECKOUT": "Checkout",
    "CREDITHOLDWARNING": "This customer's account is on Credit hold. Please contact your Bidfood depot.",
    "EMPTY": "Empty",
    "EMPTYBASKET": "Empty Basket",
    "EMPTYBASKETMESSAGE": "This will empty your basket. Are you sure?",
    "EMPTYCART": "Your basket is empty!",
    "EMPTYCARTMESSAGE": "looks like you haven't added anything to your basket yet",
    "NEW": "NEW",
    "REMOVE": "Remove",
    "REMOVEPRODUCT": "Remove Product",
    "REMOVEPRODUCTMESSAGE": "This will remove the product from the basket. Are you sure?",
    "SUBMITFORAPPROVAL": "Submit for Approval",
    "SUBTOTAL": "Subtotal",
    "TAX": "VAT",
    "TOTAL": "Total",
    "UNABLETOUPDATEBAKET": "Unable to update your basket"
  },
  "CHECKOUT": {
    "APPLYSPECIALINSTRUCTIONS": "Apply special instructions to other depot",
    "APPROVERSEMAIL": "Approver's Email",
    "CANCELORDER": "CANCEL ORDER",
    "CANCELORDER-LC": "Cancel Order",
    "CANCELORDERMESSAGE": "This will cancel your order. Are you sure?",
    "CHANGEREQUIRED": "Change Required",
    "CREATOR": "Creator",
    "CUSTOMERDETAILS": "Customer Details",
    "CUSTOMEREMAIL": "Customer Email",
    "CUSTOMERREFERENCE": "Customer Reference",
    "DELIVERYADDRESS": "Delivery Address",
    "DELIVERYDATE": "Delivery Date",
    "DELIVERYDETAILS": "Delivery Details",
    "DELIVERYDETAILSNOTAVAILABLE": "Delivery address or delivery date information is unavailable. Please contact IT help.",
    "EMAILADDRESS": "Email Address",
    "ENTERMANAGERSEMAIL": "Enter manager's email",
    "EXITCHECKOUT": "Exit Checkout",
    "EXITCHECKOUTMESSAGE": "Are you sure you want to exit the checkout process?",
    "EXPIRYDATE": "Expiry Date",
    "FOR": "for",
    "FORNEXTAVAILABLEDELIVERY": "for next available delivery",
    "INVALIDCUSTOMERREFERENCE": "Invalid Customer Reference",
    "INVALIDEXPIRYDATE": "Expiry date is invalid",
    "INVALIDSPECIALINSTRUCTION": "Invalid Special Instruction",
    "MARGIN": "Margin",
    "MAXIMUMLIMITINREFERENCE": "Customer Reference can only have a maximum of 15 characters",
    "MAXIMUMLIMITINSPECIALINSTRUCTION": "Special Instructions can only have a maximum of 255 characters",
    "ORDERBY": "Order by",
    "ORDERCONFIRMATION": "ORDER CONFIRMATION",
    "ORDERCONFIRMATIONHASBEENSENTTO": "Order confirmation has been sent to",
    "ORDERDATE": "Order Date",
    "ORDERDETAILS": "Order Details",
    "PRODUCTSFROM": "Products from",
    "SENDEMAILCONFIRMATION": "Send email confirmation",
    "SPECIALINSTRUCTIONS": "Special Instructions",
    "SUCCESSFULLYSUBMITTED": "Successfully Submitted",
    "TEXTAREANOTE": "enter comments on what changes are required",
    "THANKYOUFORORDERING": "THANK YOU FOR ORDERING ON BEHALF OF",
    "THISFIELDCANNOTBEBLANK": "This field cannot be blank",
    "USERDETAILS": "User Details",
    "USERNAME": "Username",
    "YOUMAYLOSEYOURDATA": "You may lose the data that you recently entered"
  },
  "COMPLAINT": {
    "REQUESTTOCOLLECTGOODS": "REQUEST TO COLLECT GOODS"
  },
  "COMPLAINTS": {
    "ACCOUNT": "Account",
    "ADDANOTHERPRODUCT": "Add Another Product",
    "ADDCOMPLAINT": "Add Complaint",
    "ADDCOMPLAINTBYTAPPINGONTHEADDCOMPLAINTBUTTON": "add complaint by tapping on the Add Complaint button",
    "ADDNEWCOMPLAINT": "Add New Complaint",
    "ANDTOTALSIZEIS": "& total size is",
    "ATTACHMENT": "ATTACHMENT",
    "AUTHORIZEDBY": "Authorised By",
    "BATCHNO": "BATCH NO.",
    "BESTBEFORE": "BEST BEFORE",
    "BIDFOODCOPY": "Bidfood Copy",
    "BRANCH": "Branch",
    "BRANCHBUYER": "BRANCH BUYER",
    "CANCELLATION-CANCELACTION": "Cancel",
    "CANCELLATION-COMMENTCANNOTBEBLANKANDNOTMORETHAN250CHARACTERS": "Comment cannot be blank and should be less than 250 characters.",
    "CANCELLATION-COMMENTSLABEL": "Comments",
    "CANCELLATION-FORMLABEL": "Cancel Complaint",
    "CANCELLATION-PANELTEXTCOMMENTLABEL": "Comment:",
    "CANCELLATION-PANELTEXTLABEL": "Cancellation reason",
    "CANCELLATION-SAVEACTION": "Confirm",
    "CANCELLATION-SELECTREASONSTOCANCELCOMPLAINTLABEL": "Select the reason to cancel a complaint",
    "CANCELLATION-WARNINGMESSAGELABEL": "This action will cancel the complaint and it can't be reopened.",
    "CATEGORYCANNOTBENULL": "Category cannot be blank",
    "CATEGORYMANAGER": "CATEGORY MANAGER",
    "COMPLAINTID": "Complaint ID",
    "COMPLAINTINFORMATION": "COMPLAINT INFORMATION",
    "COMPLAINTLIST": "Complaint List",
    "COMPLAINTNOTSAVEDPLEASECHECKYOURDATA": "Complaint not saved. Please check your data and try again.",
    "COMPLAINTS-ACCOUNT": "ACCOUNT",
    "COMPLAINTS-APPLY": "Apply",
    "COMPLAINTS-AT": "at",
    "COMPLAINTS-CANCEL": "Cancel",
    "COMPLAINTS-CATEGORY": "CATEGORY",
    "COMPLAINTS-CHOOSEASTATUS": "Choose a Status",
    "COMPLAINTS-COMPLAINTDATE": "COMPLAINT DATE",
    "COMPLAINTS-COMPLAINTDUE": "COMPLAINT DUE",
    "COMPLAINTS-CONTACT": "CONTACT",
    "COMPLAINTS-CONTACTEMAIL": "CONTACT EMAIL",
    "COMPLAINTS-CREATED": "CREATED",
    "COMPLAINTS-CUSTOMER": "CUSTOMER",
    "COMPLAINTS-ENTERAVALIDDATE": "Enter a valid date.",
    "COMPLAINTS-EXPORT": "Export",
    "COMPLAINTS-FILTER-FROM": "From",
    "COMPLAINTS-FILTER-OWNER": "Owner",
    "COMPLAINTS-FILTER-STATUS": "Status",
    "COMPLAINTS-FILTER-TO": "To",
    "COMPLAINTS-ID": "ID",
    "COMPLAINTS-INFORMCUSTOMER": "INFORM CUSTOMER",
    "COMPLAINTS-INVOICE": "INVOICE",
    "COMPLAINTS-LOAD-MORE": "Load More",
    "COMPLAINTS-LOADMORE": "Load More",
    "COMPLAINTS-LOCAL": "Local",
    "COMPLAINTS-NATIONAL": "National",
    "COMPLAINTS-NOCOMPLAINTSEXPORTED": "No complaints exported",
    "COMPLAINTS-NOCOMPLAINTSFOUND": "No Complaints Found",
    "COMPLAINTS-ORDERDATE": "ORDER DATE",
    "COMPLAINTS-OWNER": "OWNER",
    "COMPLAINTS-SEARCH": "Search",
    "COMPLAINTS-STATUS": "STATUS",
    "COMPLAINTS-TITLE": "Complaints",
    "COMPLAINTS-TYPE": "TYPE",
    "COMPLAINTS-UPDATED": "UPDATED",
    "COMPLAINTSAVEDANDRELEVANTTASKSWILLSOONBEGENERATEDIFCONFIGUREDACCORDINGLY": "Complaint saved and relevant tasks will soon be generated if configured accordingly",
    "CONTACT": "Contact",
    "CONTACTCANNOTBENULL": "Contact cannot be blank",
    "CORRECTIVEACTION": "Corrective Action",
    "CORRECTIVEACTIONCANNOTBEBLANK": "Corrective action cannot be blank",
    "CREATENEWCOMPLAINT": "Create New Complaint",
    "CREDIT": "Credit",
    "CUSTOMER": "Customer",
    "CUSTOMERCOPY": "Customer Copy",
    "CUSTOMERNAME": "Customer Name",
    "CUSTOMERRESOLUTIONSNOTES": "Customer Resolutions Notes",
    "CUSTOMERRESOLUTIONSNOTESCANNOTBEBLANK": "Customer resolutions notes cannot be blank",
    "CUSTOMERSIGNATURE": "Customer Signature",
    "DESCRIPTION": "Description",
    "DESCRIPTIONCANNOTBEBLANK": "Description cannot be blank",
    "DETAILS-ATTACHMENT": "ATTACHMENT",
    "DETAILS-BATCHNO": "BATCH NO",
    "DETAILS-BESTBEFORE": "BEST BEFORE",
    "DETAILS-BRANCHBUYER": "BRANCH BUYER",
    "DETAILS-CATEGORY": "CATEGORY",
    "DETAILS-CATEGORYMANAGER": "CATEGORY MANAGER",
    "DETAILS-COMPLAINTDATE": "COMPLAINT DATE",
    "DETAILS-COMPLAINTDUE": "COMPLAINT DUE",
    "DETAILS-COMPLAINTID": "COMPLAINT ID",
    "DETAILS-CONTACT": "CONTACT",
    "DETAILS-CONTACTEMAILS": "CONTACT EMAILS",
    "DETAILS-CREATOR": "CREATOR",
    "DETAILS-DESCRIPTION": "DESCRIPTION",
    "DETAILS-EXCLBRAND": "EXCL. BRAND",
    "DETAILS-INFORMCUSTOMER": "INFORM CUSTOMER",
    "DETAILS-INVOICENO": "INVOICE NO",
    "DETAILS-LASTUPDATED": "LAST UPDATED",
    "DETAILS-MNFDATE": "MNF. DATE",
    "DETAILS-NO": "No",
    "DETAILS-ORDERDATE": "ORDER DATE",
    "DETAILS-OWNER": "OWNER",
    "DETAILS-PICKUPPRODUCT": "PICKUP PRODUCT",
    "DETAILS-PRODUCT": "PRODUCT",
    "DETAILS-RETURNQTY": "RETURN QTY",
    "DETAILS-SUBJECT": "SUBJECT",
    "DETAILS-SUPPLIER": "SUPPLIER",
    "DETAILS-TYPE": "TYPE",
    "DETAILS-UOM": "UOM",
    "DETAILS-YES": "Yes",
    "DRIVERNAME": "Driver Name",
    "DRIVERSIGNATURE": "Driver Signature",
    "EDITTHECOMPLAINTANDADDPRODUCTFORPICKUP": "edit the complaint and add product for pickup",
    "ERROROCCURRED": "Error occurred",
    "ERROROCCURREDWHILEFETCHINGRESOLUTIONDETAILSPLEASECONTACTYOURADMIN": "Error occurred while fetching Resolution details, please contact your Admin.",
    "EXCLBRAND": "EXCL. BRAND",
    "FAX": "Fax",
    "FIELDSDATAEXCEEDEDTHECHARACTERLIMITOF": "Fields data exceeded the character limit of",
    "FILEFORMAT": "File Format",
    "INVALIDINVOICESEARCHWITHTHREECHARACTERS": "Invalid invoice. Search with 3 characters.",
    "INVESTIGATION": "Investigation",
    "INVESTIGATIONCANNOTBEBLANK": "Investigation cannot be blank",
    "INVOICE": "Invoice",
    "INVOICED": "Invoiced",
    "INVOICEDATE": "Invoice Date",
    "ISNOTSUPPORTED": "is not supported",
    "MANUFACTURED": "MANUFACTURED",
    "MAXIMUM": "Maximum",
    "MAXIMUMNUMBEROF": "Maximum number of",
    "MAXLENGTH150": "Max length is 150 characters.",
    "MB": "MB",
    "MUSTENTERBATCHNOORBESTBEFORE": "Must enter Batch No or Best Before",
    "MUSTENTERDESCRIPTION": "Must enter description",
    "MUSTENTERPICKUPPRODUCT": "Must enter pickup product",
    "MUSTENTERPRODUCTWITHATLEASTTHREECHARACTERS": "Must enter product with atleast 3 characters",
    "MUSTENTERQUANTITYANDSHOULDBENUMBER": "Must enter quantity and should be number",
    "MUSTENTERSUBJECT": "Must enter subject",
    "MUSTENTERUOM": "Must enter uom",
    "NO": "No",
    "NOPRODUCTSFORPICKUP": "No Products for Pickup",
    "NOTES": "NOTES",
    "OFTOTALSIZE": "of total size",
    "OPENTASKS": "open tasks",
    "PHONE": "Phone",
    "PICKUPDATE": "Pickup Date",
    "PICKUPNOTE": "Pickup Note",
    "PICKUPPRODUCT": "PICKUP PRODUCT",
    "PICKUPSHEET": "Pickup Sheet",
    "PICKUPSHEETNOTESAVED": "Pickup sheet note saved",
    "PICKUPSHEETNOTESAVEDFAILED": "Pickup sheet note saved failed",
    "PLEASECOMPLETEALLMANDATORYFIELDS": "Please complete all mandatory fields",
    "PLEASESELECTANINVOICE": "Please select an invoice",
    "PREVENTIVEACTION": "Preventive Action",
    "PREVENTIVEACTIONCANNOTBEBLANK": "Preventive action cannot be blank",
    "PRODUCT": "Product",
    "PRODUCTINFORMATION": "PRODUCT INFORMATION",
    "PRODUCTNOTESAVED": "Product note saved",
    "PRODUCTNOTESAVEDFAILED": "Product note saved failed",
    "PRODUCTSFORPICKUP": "Products for pickup",
    "PRODUCTSNOTFORPICKUP": "Products not for pickup",
    "QUANTITY": "QUANTITY",
    "REQUESTTOCOLLECTGOODS": "Bidfood Copy",
    "RETURNED": "Returned",
    "RETURNING": "Returning",
    "RETURNQTY": "RETURN QTY",
    "RUNNO": "Run No",
    "RUNSEQ": "Run Seq",
    "SALESREP": "Sales Rep",
    "SELECTCOMPLAINTCATEGORYANDTYPE": "select complaint category and type",
    "SELECTINVOICE": "select invoice",
    "SUBJECT": "SUBJECT",
    "SUBJECTCANNOTBEBLANK": "Subject cannot be blank",
    "SUPPLIER": "SUPPLIER",
    "SUPPLIERCREDITREQUIRED": "Supplier Credit Required",
    "TABS-DETAILS": "DETAILS",
    "TABS-PICKUPSHEET": "PICKUP SHEET",
    "TABS-RESOLUTION": "RESOLUTION",
    "TABS-TASKS": "TASKS",
    "TASKDETAILS-CLOSE": "CLOSE",
    "TASKDETAILS-DETAILS": "DETAILS",
    "TASKDETAILS-MUSTENTERSTATUS": "Must enter Status",
    "TASKDETAILS-OVERVIEW": "OVERVIEW",
    "TASKDETAILS-OWNER": "OWNER",
    "TASKDETAILS-STATUS": "STATUS",
    "TASKDETAILS-SUBJECT": "SUBJECT",
    "TASKS-ADDNEWTASK": "Add New Task",
    "TASKS-ADDTASK": "Add Task",
    "TASKS-ADDTASKBYTAPPINGONTHEADDTASKBUTTON": "add task by tapping on the Add Task button",
    "TASKS-ONLY2000CHARACTERSALLOWED": "Only 2,000 characters allowed.",
    "TASKS-OWNER": "OWNER",
    "TASKS-STATUS": "STATUS",
    "TASKS-SUBJECTCANNOTBEBLANKANDNOTMORETHAN150CHARACTERS": "Subject cannot be blank and not more than 150 characters",
    "TASKS-TASK": "TASK",
    "TASKSDETAILS-TITLE": "TASK DETAILS",
    "TYPECANNOTBENULL": "Type cannot be blank",
    "UOM": "UOM",
    "USER": "User",
    "YES": "Yes"
  },
  "COMPLAINTTASKSTATUS-CLOSED": "Done",
  "COMPLAINTTASKSTATUS-INPROGRESS": "In Progress",
  "COMPLAINTTASKSTATUS-NEW": "To Do",
  "CUSTOMER-CONTACTS": {
    "ALTERNATIVEPHONE": "Alternative phone",
    "ANDUPDATEDBY": "and updated by",
    "CANCEL": "CANCEL",
    "CHOOSEALANGUAGE": "Choose a language",
    "CHOOSEAPOSITION": "Choose a position",
    "CHOOSEARESPONSIBILITY": "Choose a responsibility",
    "CONTACTCREATEDBY": "Contact created by",
    "CONTACTDELETED": "Contact deleted.",
    "CONTACTNOTDELETED": "Contact not deleted.",
    "CONTACTNOTSAVE": "Contact not saved.",
    "CONTACTSAVED": "Contact saved.",
    "CUSTOMERSEARCH": "Search and link customer account",
    "DELETE": "DELETE",
    "EMAILADDRESS": "Email",
    "ENTEREMAILADDRESS": "Enter the email address",
    "FIRSTNAME": "First name",
    "FIRSTNAMECANNOTBEBLANK": "First name cannot be blank",
    "INVALIDEMAILADDRESS": "Invalid email address",
    "INVALIDPHONENUMBER": "Invalid phone number",
    "LANGUAGE": "Language",
    "LASTNAME": "Last name",
    "LASTNAMECANNOTBEBLANK": "Last name cannot be blank",
    "LINKACCOUNTS": "Link Accounts",
    "LINKEDACCOUNTS": "Linked Accounts",
    "LINKEDBY": "Linked by",
    "LINKEDCUSTOMERACCOUTNSEARCHLENGTH": "Minimum 3 characters required.",
    "LOSECHANGEMESSAGE": "You have not saved your current work and will lose changes. Do you want to proceed?",
    "MAXLENGTH4000": "The max length for this field is 4000 characters.",
    "MUSTENTERPHONENUMBEROREMAIL": "Must enter a phone number or email",
    "NO": "NO",
    "NORESULTSSEARCH": "No results.",
    "POSITION": "Position",
    "POSITIONCANNOTBEBLANK": "Position cannot be blank",
    "PREFERREDPHONE": "Preferred phone",
    "PRIMARYACCOUNT": "Primary Account",
    "REMARKSOPTIONAL": "Remarks",
    "RESPONSIBILITIES": "Responsibilities",
    "SAVE": "SAVE",
    "TITLE": "Title",
    "UNLINKFROMPRIMARYACCOUNT": "You can unlink this contact from primary contact",
    "YES": "YES"
  },
  "CUSTOMER-FILTER": {
    "APPLY": "Apply",
    "CANCEL": "Cancel",
    "CHOOSEACUSTOMER": "Choose a customer",
    "CHOOSEATYPE": "Choose a type",
    "CHOOSERUNNUMBER": "Choose a run number",
    "CHOOSESALESGROUP": "Choose a group",
    "CUSTOMERTYPE": "CUSTOMER TYPE",
    "EVENTTYPE": "EVENT TYPE",
    "INDUSTRYGROUP": "INDUSTRY GROUP",
    "INDUSTRYTYPE": "Industry type",
    "RUNNUMBER": "RUN NUMBER",
    "SALESGROUP": "SALES GROUP"
  },
  "CUSTOMER-OVERVIEW": {
    "8WEEKSSALES": "8 Weeks Sales",
    "ACCOUNTTERM": "ACCOUNT TERM",
    "ACTIONS": "ACTIONS",
    "ADDNEWCONTACT": "Add New Contact",
    "ADDNEWCONTACTS": "ADD NEW CONTACTS",
    "AVERAGE": "Average",
    "BACKORDERALLOWED": "BACK ORDER ALLOWED",
    "BUSINESSIDENTIFIER": "BUSINESS IDENTIFIER",
    "CANCEL": "CANCEL",
    "COMPLAINTS": "COMPLAINTS",
    "CONTACTDETAILS": "CONTACT DETAILS",
    "CONTACTS": "CONTACTS",
    "CONTACTS-LC": "Contacts",
    "CONTACTUNSUBSCRIBEDTEXT": "Unsubscribed for marketing from",
    "CREDITHOLD": "CREDIT HOLD",
    "CREDITLIMIT": "CREDIT LIMIT",
    "CREDITRATING": "CREDIT RATING",
    "CREDITSPENDTODATE": "CREDIT SPEND TO DATE",
    "CUSTOMERGROUP": "CUSTOMER GROUP",
    "CUSTOMERINFORMATION": "CUSTOMER INFORMATION",
    "DELIVERYADDRESS": "DELIVERY ADDRESS",
    "DELIVERYINDEMNITY": "DELIVERY INDEMNITY",
    "DELIVERYSCHEDULE": "DELIVERY SCHEDULE",
    "EDIT": "EDIT",
    "EDITCOMPLAINT": "Edit Complaint",
    "EDITCONTACT": "Edit contact",
    "EMAIL": "Email",
    "EMAILADDRESS": "EMAIL ADDRESS",
    "ENTERTOTALPOTENTIAL": "Enter Total Potential",
    "FAXNUMBER": "FAX NUMBER",
    "GETDIRECTIONS": "GET DIRECTIONS",
    "INDUSTRYGROUP": "INDUSTRY GROUP",
    "INFORMATION-NA": "Information N/A",
    "LASTLOGIN": "LAST LOGIN",
    "LATESTEVENTS": "LATEST EVENTS",
    "LOGEVENTS": "Log Event",
    "LOGINID": "LOGIN",
    "MARKETING": "MARKETING",
    "MARKETINGCONTACT": "Send marketing emails to this contact",
    "MARKETINGSETTINGSCHANGESARENOTEDITABLEFORTHISCONTACT": "Marketing settings changes are not editable for this contact.",
    "MEETWITH": "meet with",
    "MEMBERSINCE": "MEMBER SINCE",
    "MOREADDRESSES": "See other delivery addresses",
    "NAME": "NAME",
    "NATIONALACCOUNT": "NATIONAL ACCOUNT",
    "NEVERLOGGEDIN": "Never logged in",
    "NEWCOMPLAINT": "New Complaint",
    "NEWQUOTE": "New Quote",
    "NO": "No",
    "NOCUSTOMERCONTACTS": "No customer contacts",
    "NOLATESTEVENTS": "No latest events",
    "NOSALESINFORMATIONFOUNDFORTHISCUSTOMER": "No sales information found for this customer",
    "NOTEFORMARKETINGCONTACT": "",
    "NOTLINKED": "Not Linked",
    "ON": "on",
    "ONLINEUSERS": "MyBidfood Users",
    "ORDERCUTOFFTIME": "ORDER CUT OFF TIME",
    "OTHERBUSINESSES": "OTHER ACCOUNTS",
    "OUTSTANDINGBALANCE": "OUTSTANDING BALANCE",
    "OVERDUEBALANCE": "OVERDUE BALANCE",
    "OVERVIEW": "OVERVIEW",
    "PHONE": "PHONE",
    "PHONENUMBER": "PHONE NUMBER",
    "PHYSICALADDRESS": "PHYSICAL ADDRESS",
    "PLANNER": "PLANNER",
    "PLEASEENETEREMAILADDRESSTOENABLEMARKETINGFORTHISCONTACT": "Please enter email address to enable marketing for this contact",
    "POSITION": "POSITION",
    "PREFERREDONLY": "PREFERRED ONLY",
    "PRICINGGROUP": "PRICING GROUP",
    "PRIMARYCONTACT": "Primary Contact",
    "PRIMARYLINKED": "Primary Contact",
    "REBATE": "REBATE",
    "REMARKS": "REMARKS",
    "REPCODE": "REP CODE",
    "RUNNUMBER/RUNSEQUENCE": "RUN NUMBER / RUN SEQUENCE",
    "SALES": "SALES",
    "SALESGROUP": "SALES GROUP",
    "SALESREP": "SALES REP",
    "SAVE": "SAVE",
    "SECONDARYCONTACT": "Secondary contact",
    "SECONDARYLINKED": "Secondary Contact",
    "SEEDETAILS": "SEE DETAILS",
    "SENDPASSWORD": "SEND PASSWORD",
    "SHADOWLOGIN": "Shadow Login",
    "SOURCE": "SOURCE",
    "SUBSCRIBEDFORMARKETINGFROM": "Subscribed for marketing from",
    "TAXAPPLICABLE": "TAX APPLICABLE",
    "TOTALPOTENTIALCANNOTBEBLANK": "Total Potential cannot be blank",
    "UNSUBSCRIBEDFORMARKETINGFROM": "Unsubscribed for marketing from",
    "USERNAME": "USER NAME",
    "VIEWCONTACT": "Contact Details",
    "YES": "Yes"
  },
  "Cancel": "Cancel",
  "Cancel Complaint": "Cancel Complaint",
  "Cancelled": "Cancelled",
  "Cannot add more than 12 products": "Cannot add more than 12 products!",
  "Changing the invoice number will result in the removal of associated products. Are you sure you want to proceed? This action cannot be undone": "Changing the invoice number will result in the removal of associated products. Are you sure you want to proceed? This action cannot be undone.",
  "Close": "Close",
  "Close Complaint": "Close Complaint",
  "Closed": "Closed",
  "Complaint Task deleted": "Complaint Task deleted",
  "Complaint Task saved": "Complaint Task saved",
  "Complaint Task updated": "Complaint Task updated",
  "Complaint must have at least 1 product": "Complaint must have at least 1 product.",
  "Complaint saved": "Complaint saved",
  "DASHBOARD": {
    "ADDRESS": "ADDRESS",
    "AGE": "AGE",
    "AGO": "ago",
    "ALLCUSTOMERHAVEEVENTS": "Well done! All your customers have events",
    "ALLCUSTOMERHAVESALES": "Hooray! All customers have sales",
    "ALLNEWCUSTOMERHAVESALES": "Hooray! All customers created in last",
    "ALLQUOTESAPPROVED": "All quotes are accepted by the customers",
    "CONTACT": "CONTACT",
    "CPG": "PRICING GROUP",
    "CPG-LC": "Pricing Group",
    "CREATOR": "CREATOR",
    "CRG": "CUSTOMER GROUP",
    "CRG-LC": "Customer Group",
    "CUSTOMER": "CUSTOMER",
    "CUSTOMERSBYPOTENTIAL": "CUSTOMERS BY POTENTIAL",
    "CUSTOMERSBYPOTENTIALREPORT": "CustomersByPotentialReport",
    "CUSTOMERSWITHNOEVENTS": "Customers with no events",
    "CUSTOMERSWITHNOEVENTS-UC": "CUSTOMERS WITH NO EVENTS",
    "CUSTOMERSWITHNOSALES": "CUSTOMERS WITH NO SALES",
    "CUSTOMERSWITHNOSALESREPORT": "CustomersWithNoSalesReport",
    "CUSTOMERSWITHSALESDROPPINGREPORT": "CustomersWithSalesDroppingReport",
    "CUSTOMERWITHSALESDROPPING": "CUSTOMERS WITH SALES DROPPING",
    "DASHBOARD": "Dashboard",
    "DATE": "DATE",
    "DAYS": "days",
    "DROP": "DROP",
    "EVENTTYPE": "Event Type",
    "EXPORT": "Export",
    "HAVESALES": "have sales",
    "INFORMATION-NA": "N/A",
    "LASTEVENT": "LAST EVENT",
    "LASTMONTHSALES": "Last Month Sales",
    "LEADS": "LEADS",
    "MARGIN": "MARGIN",
    "NEWCUSTOMERSWITHNOSALES": "NEW CUSTOMERS WITH NO SALES",
    "NEWCUSTOMERSWITHNOSALESREPORT": "NewCustomersWithNoSalesReport",
    "NO": "No",
    "NOCUSTOMERS": "No Customers",
    "NOCUSTOMERSFOUND": "No customers found for this search criteria",
    "NOCUSTOMERSWITHSALESDROP": "Wow! there are no customers with sales dropping",
    "NOEVENTSREPORT": "NoEventsReport",
    "NOLEADS": "You have no active leads",
    "NOOVERDUEAPPOINTMENT": "You are doing great. There are no overdue appointments",
    "NOQUOTESINDRAFT": "There are no quotes in draft state",
    "NOUPCOMINGAPPOINTMENT": "You have no upcoming appointments scheduled",
    "ONEDAY": "day",
    "PERIOD": "PERIOD",
    "PERIOD-LC": "Period",
    "PHONE": "Phone",
    "POTENTIAL-8WEEKS": "POTENTIAL (8W)",
    "POTENTIALNOTSET": "Potential is not set for your customers",
    "QUOTESINDRAFT": "QUOTES IN DRAFT",
    "QUOTESPENDINGCUSTOMERAPPROVAL": "QUOTES PENDING CUSTOMER APPROVAL",
    "QUOTESREPORT": "QuotesReport",
    "REPCODE": "REP CODE",
    "REPORT": "Report",
    "SALES-8WEEKS": "SALES (8W)",
    "SALESDASHBOARD": "Sales Dashboard",
    "STATUS": "STATUS",
    "SUBTOTAL": "SUBTOTAL",
    "TODAY": "Today",
    "USERS": "USERS",
    "USERS-LC": "Users",
    "VALUE": "VALUE",
    "VS": "vs"
  },
  "DATASERVICE": {
    "CUSTOMERCALL": "Customer Call",
    "EMAIL-LC": "Email",
    "INBOUNDCALL": "Inbound call",
    "MESSAGING": "Messaging",
    "OTHER": "Other",
    "OUTBOUNDCALL": "Outbound call",
    "REFERRAL": "Referral",
    "SOCIALMEDIA": "Social Media",
    "SPECIALEVENT": "Special event",
    "VISIT": "Visit",
    "WORDOFMOUTH": "Word of mouth"
  },
  "Delete": "Delete",
  "Duplicate email addresses": "Duplicate email addresses.",
  "EMAIL-MODAL": {
    "CANCEL": "Cancel",
    "DESCRIPTION": "DESCRIPTION",
    "DESCRIPTIONCANNOTBEBLANK": "Description cannot be blank",
    "DUPLICATEEMAILADDRESS": "You have entered duplicate email address",
    "EMAILSENT": "Email sent.",
    "EVENTEMAIL": "Event email",
    "FROM": "FROM",
    "HI": "Hi",
    "INVALIDEMAILADDRESS": "Invalid email address",
    "LOSECHANGEMESSAGE": "You have not saved your current work and will lose changes. Do you want to proceed?",
    "MAXIMUMEMAILLIMIT": "Maximum number of email address allowed is",
    "MAXLENGTH170": "Max length is 170 charachters.",
    "MAXSIZEOFATTACHMENTFORANEMAILIS": "Maximum size of attachments for an email is",
    "NO": "No",
    "NOPDFFOUNDINMYBIDFOOD": "No pdf found in Mybidfood",
    "PLEASECOMPLETEALLTHEMANDATORYFIELDS": "Please complete all mandatory fields",
    "REGARDS": "Regards",
    "SEND": "Send",
    "SORRYANERRORHASOCCURRED": "Sorry, an error has occurred while downloading pdf",
    "SUBJECT": "SUBJECT",
    "SUBJECTCANNOTBEBLANK": "Subject cannot be blank",
    "THISEMAILWILLBETRACKED": "This email will be tracked against ",
    "THISFIELDCANNOTBEBLANK": "This field cannot be blank",
    "TO": "TO",
    "UNKNOWNERROR": "An unknown error has occurred",
    "YES": "Yes"
  },
  "EMAIL-PREVIEW": {
    "ADDRESS": "Address",
    "APARTOF": "a part of",
    "ATT": "ATT",
    "BIDFOODGROUP": "Bidfood Group",
    "EFFECTIVEDATE": "EFFECTIVE DATE",
    "EXPIRES": "Expires",
    "EXPIRES-UC": "EXPIRES",
    "FAXNO": "Fax No",
    "PHONE": "Phone",
    "PRICE": "PRICE",
    "PRICEFORCPG": "PRICE FOR CPG",
    "PRODUCT": "PRODUCT",
    "QTY": "QTY",
    "QUOTEFOR": "QUOTE FOR",
    "QUOTEID": "QUOTE ID",
    "SALESREP": "SALES REP",
    "SUBTOTAL": "Subtotal",
    "TAX": "Tax",
    "TOTAL": "Total",
    "TOTAL-UC": "TOTAL",
    "UOM": "UOM",
    "YES": "Yes"
  },
  "ERP": {
    "ERPFAILED": "Something went wrong with Contact Mangement API in ERP"
  },
  "EVENTS-MODAL": {
    "ACCOUNT": "ACCOUNT",
    "ACCOUNT-LC": "Account",
    "ACCOUNTCANNOTBEBLANK": "Account cannot be blank",
    "ATTACHMENTS": "ATTACHMENTS",
    "CANCEL": "Cancel",
    "CC": "CC",
    "CLOSE": "Close",
    "CLOSINGAPPOINTMENTPOPUPMESSAGE": "Do you also want to close an appointment for this customer?",
    "CONTACT": "CONTACT",
    "CONTACTCANNOTBEBLANK": "Contact cannot be blank",
    "DATE": "DATE",
    "DATECANNOTBEBLANK": "Date cannot be blank",
    "DESCRIPTION": "DESCRIPTION",
    "DESCRIPTIONCANNOTBEBLANK": "Description cannot be blank",
    "EDIT": "Edit",
    "EVENTDETAILS": "Event Details",
    "EVENTSAVED": "Event saved.",
    "FILEFORMAT": "File Format",
    "FROM": "From",
    "ISNOTSUPPORTED": "is not supported",
    "LEADID": "LEAD ID",
    "LOSECHANGEMESSAGE": "You have not saved your current work and will lose changes. Do you want to proceed?",
    "MAXLENGTH150": "Max length is 150 characters.",
    "MAXSIZEOFATTACHMENTFORANEVENTIS": "Maximum size of attachments for an event is",
    "NO": "No",
    "PLEASECOMPLETEALLTHEMANDATORYFIELDS": "Please complete all mandatory fields",
    "SAVE": "Save",
    "SENDASEMAIL": "Send email",
    "SENT": "Sent",
    "SUBJECT": "SUBJECT",
    "SUBJECTCANNOTBEBLANK": "Subject cannot be blank",
    "SUMMARYTAGS": "Summary Tags",
    "TO": "To",
    "TYPE": "TYPE",
    "YES": "Yes"
  },
  "EVENTS": {
    "ACCOUNT": "ACCOUNT",
    "ACCOUNTS": "Accounts",
    "APPLY": "Apply",
    "CANCEL": "Cancel",
    "CHOOSEADATE": "Choose a date",
    "CHOOSEANACCOUNT": "Choose an account",
    "CHOOSEATAG": "Choose a tag",
    "CHOOSEATYPE": "Choose a type",
    "CHOOSECUSTOMERGROUP": "Choose customer group",
    "CHOOSECUSTOMERPRICING": "Choose pricing group",
    "CLOSE": "Close",
    "CONTACT": "CONTACT",
    "CONTACTCANNOTBEBLANK": "Contact cannot be blank",
    "CREATED": "CREATED",
    "CREATEDBY": "Created by",
    "CREATOR": "Creator",
    "CREATOR-UC": "CREATOR",
    "CUSTOMER": "CUSTOMER",
    "CUSTOMERGROUP": "CUSTOMER GROUP",
    "CUSTOMERGROUP-LS": "Customer group",
    "DATE": "Date",
    "DATE-UC": "DATE",
    "DATECANNOTBEBLANK": "Date cannot be blank",
    "DESCRIPTION": "DESCRIPTION",
    "DESCRIPTIONCANNOTBEBLANK": "Description cannot be blank",
    "EVENTDETAILS": "Event Details",
    "EVENTS": "Events",
    "EXPORT": "Export",
    "EXPORTSUCCESSFUL": "Export successful",
    "IMPORTTEMPLATE": "Import Template",
    "INTERACTIONDATE": "INTERACTION",
    "LOCAL": "Local",
    "LOGEVENTS": "Log Event",
    "MINTHREECHARACTERS": "Minimum of 3 characters required for searching events.",
    "NATIONAL": "National",
    "NOEVENTEXPORTED": "No event exported",
    "NOEVENTSFOUND": "No events found.",
    "OVERVIEW": "OVERVIEW",
    "SAVE": "Save",
    "SEARCH": "Search",
    "SENDASEMAIL": "Send email",
    "SUBJECT": "SUBJECT",
    "SUBJECTCANNOTBEBLANK": "Subject cannot be blank",
    "SUMMARYTAGS": "Summary Tags",
    "TAGS": "Tags",
    "TAGS-UC": "TAGS",
    "TASKS": "TASKS & REMINDERS",
    "TYPE": "TYPE",
    "TYPECREATOR": "Type creator",
    "TYPES": "Types",
    "UPDATES": "UPDATES"
  },
  "EVENTTAGS__DAMAGED": "Damaged",
  "EVENTTAGS__Damaged": "Damaged",
  "EVENTTYPES": {
    "EMAIL": "sent an email to",
    "INBOUNDCALL": "received a call from",
    "MESSAGING": "messaging to",
    "OTHER": "interacted with",
    "OUTBOUNDCALL": "made a call to",
    "VISIT": "met with"
  },
  "EVENTTYPES__DETAILEDNAME_EMAIL": "Email",
  "EVENTTYPES__DETAILEDNAME_INBOUND_CALL": "Inbound Call",
  "EVENTTYPES__DETAILEDNAME_MESSAGING": "Messaging",
  "EVENTTYPES__DETAILEDNAME_OTHER": "Other",
  "EVENTTYPES__DETAILEDNAME_OUTBOUND_CALL": "Outbound call",
  "EVENTTYPES__DETAILEDNAME_SPECIAL_EVENT": "Special event",
  "EVENTTYPES__DETAILEDNAME_VISIT": "Visit",
  "Edit": "Edit",
  "Edit Task": "Edit Task",
  "Email cannot be blank": "Email cannot be blank.",
  "Enter Text Here": "Enter text here...",
  "Escalated": "Escalated",
  "Export request submitted successfully.": "Export request submitted successfully.",
  "FEEDBACK": {
    "CANCEL": "Cancel",
    "DESCRIPTION": "DESCRIPTION",
    "DESCRIPTIONCANNOTBEBLANK": "Description cannot be blank",
    "EMAILSENT": "Email sent.",
    "ERRORSENDINGFEEDBACK": "Error occurred while sending feedback, please contact IT Help desk",
    "FEEDBACK": "Feedback",
    "FROM": "FROM",
    "SEND": "Send",
    "SUBJECT": "SUBJECT",
    "SUBJECTCANNOTBEBLANK": "Subject cannot be blank",
    "TO": "TO",
    "TYPE": "TYPE"
  },
  "GENERAL": {
    "A-Z": "A-Z",
    "ADDRESS": "Address",
    "ALL": "ALL",
    "APPLY": "Apply",
    "AREYOUSUREYOUWANTTOOVERWRITEEXISTINGATTACHMENTS": "Are you sure you want to overwrite the existing attachments?",
    "AT": "at",
    "ATTACHMENTS": " attachments",
    "ATTACHMENTSANDTOTALSIZEIS": "attachments & total size is",
    "CANCEL": "Cancel",
    "CANNOTADDMORETHAN": "Cannot add more than ",
    "CHARACTERS": "characters",
    "CLOSE": "Close",
    "CONTACTPERSON": "Contact person",
    "DAYS": "days",
    "DEACTIVATE": "Deactivate",
    "DELETE": "DELETE",
    "ENTERAVALIDDATE": "Enter a valid date",
    "EXPORTREQUESTSUBMITTED": "Export Request Submitted Successfully",
    "EXPORTSUCCESSFUL": "Export successful",
    "FROM": "FROM",
    "FROM-LC": "From",
    "HELP": "Help",
    "IMPORT": "Import",
    "IMPORTFILEISPROCESSING": "Import file is processing.",
    "IMPORTSUCCESSFUL": "Import successful.",
    "IN": "in",
    "INFORMATION-N/A": "N/A",
    "INFORMATION-NA": "Information N/A",
    "INVALIDFILEFORMAT": "Invalid file format, please choose valid .csv files",
    "LASTCOMMUNICATION": "Last communication",
    "MAXIMUM": "Maximum",
    "MAXIMUMATTACHMENTSFORIPADLANDSCAPE": "Maximum 3 attachments of total size 2MB",
    "MAXIMUMATTACHMENTSFORIPADPORTRAIT": "Maximum 3 of total size 2MB",
    "MAXIMUMFILESIZEIS": "Maximum file size is",
    "MAXIMUMNUMBEROF": "Maximum number of",
    "MAXIMUMNUMBEROFATTACHMENTSIS": "Maximum number of attachments is",
    "MAXIMUMVALUEIS": "Maximum value is ",
    "MAXNUMBER1000000000": "Max number is 1,000,000,000.00",
    "NA": "N/A",
    "NO": "No",
    "NODATATOEXPORT": "No data to export",
    "NORESULTFOUND": "No result found",
    "OF": "of",
    "OFF": "off",
    "OFTOTALSIZE": "of total size",
    "PHONE": "Phone",
    "PLEASECOMPLETEALLTHEMANDATORYFIELDS": "Please complete all mandatory fields",
    "PLEASESELECT": "PLEASE SELECT",
    "QTY": "QTY",
    "RESET": "Reset",
    "RESULT": "result",
    "RESULTS": "results",
    "SAVE": "Save",
    "SEARCH": "Search",
    "SEEDETAILS": "See Details",
    "SEEMORE": "See More",
    "SELECTATLEASTONEVALUE": "Select at least one value",
    "SHOWING": "Showing",
    "THISFIELDCANNOTBEBLANK": "This field cannot be blank",
    "TO": "TO",
    "TO-LC": "To",
    "TOTAL-UC": "TOTAL",
    "WAS": "was",
    "YES": "Yes",
    "YOUAREBACKONLINE": "You are back online",
    "YOUCANENTERAMAXIMUMOF": "You can only enter a maximum of",
    "YOUHAVENOINTERNETCONNECTION": "You have no internet connection",
    "YOURINTERNETCONNECTIONISNOTSTABLEREFRESH": "Network disruption. Please refresh the page.",
    "YOURINTERNETCONNECTIONISUNSTABLE": "Network disruption. The system is attempting to retrieve the information."
  },
  "GLOBAL": {
    "GLOBALTIMEOUT": "Your session timed out, please click refresh",
    "REFRESH": "Refresh"
  },
  "HEADER": {
    "ALLCOMPLAINTS": "All Complaints",
    "ALLCUSTOMERS": "All Customers",
    "ALLLEADS": "All Leads",
    "ALLORDERS": "All Orders",
    "ALLSCHEDULES": "All Schedules",
    "COMPLAINTS": "Complaints",
    "CUSTOMERS": "Customers",
    "FEEDBACK": "Feedback",
    "FLAG-CODE": "uk",
    "IFYOUCHANGELANGUAGE": "If you change language, your unsaved data might get lost. Are you sure you want to continue?",
    "LANGUAGE": "English-UK",
    "LANGUAGE-BUTTON": "Language",
    "LANGUAGE-CODE": "en",
    "LEADS": "Leads",
    "LOGOUT": "Logout",
    "MYCOMPLAINTS": "My Complaints",
    "MYCUSTOMERS": "My Customers",
    "MYLEADS": "My Leads",
    "MYORDERS": "My Orders",
    "MYSCHEDULES": "My Schedules",
    "NO": "No",
    "ORDERS": "Orders",
    "SCHEDULES": "Schedules",
    "SEARCH": "Search",
    "SELECTLANGUAGE": "Select Language",
    "YES": "Yes",
    "YOURCUSTOMERS": "Your customers",
    "YOURLEADS": "Your leads"
  },
  "In Progress": "In Progress",
  "Information-NA": "Information N/A",
  "Invalid Information!": "Invalid Information!",
  "Invalid email address": "Invalid email address.",
  "LANDING-TOP-TABS": {
    "EVENTS": "EVENTS",
    "OPPORTUNITIES": "OPPORTUNITIES",
    "OVERVIEW": "OVERVIEW",
    "PRODUCTS": "PRODUCTS",
    "QUOTES": "QUOTES",
    "SALES": "SALES",
    "TRANSACTIONS": "TRANSACTIONS"
  },
  "LEADS": {
    "ACCOUNTCODE": "ACCOUNT CODE",
    "ADDRESS": "ADDRESS",
    "ADDRESSDETAILSCANNOTBEBLANK": "Address field cannot be blank",
    "ADDRESSLINE1": "ADDRESS LINE 1",
    "ADDRESSLINE2": "ADDRESS LINE 2",
    "AGE": "AGE",
    "AGE-LC": "Age",
    "ALTERNATIVENUMBER": "ALTERNATIVE PHONE",
    "APPLY": "Apply",
    "AREYOUSUREYOUWANTTODELETETHISLEAD": "Are you sure you want to delete this lead?",
    "BRANCH": "DEPOT",
    "BRANCHES": "DEPOTS",
    "BRANCHESFIELDCANNOTBEBLANK": "Depots field cannot be blank",
    "BUSINESSNAME": "BUSINESS NAME",
    "BUSINESSNAMEFIELDCANNOTBEBLANK": "Business name field cannot be blank",
    "CANCEL": "Cancel",
    "CHOOSEACONVERTED": "Choose a converted",
    "CHOOSEANOPTION": "Choose an option",
    "CHOOSEASTATUS": "Choose a status",
    "CITY": "CITY",
    "CITYFIELDCANNOTBEBLANK": "City field cannot be blank",
    "CONTACT": "CONTACT",
    "CONTACTDETAILS": "Address Details",
    "CONVERT": "Convert",
    "CREATED-LC": "Created",
    "CREATEDBY": "CREATED BY",
    "CREATEDFROMDATE": "CREATED FROM",
    "CREATEDFROMDATE-LC": "Created from",
    "CREATEDTODATE": "CREATED TO",
    "CREATEDTODATE-LC": "Created to",
    "CREATENEWLEAD": "Create New Lead",
    "CREATOR": "CREATOR",
    "CREATOR-LC": "Creator",
    "CURRENTDISTRIBUTOR": "PRIMARY DISTRIBUTOR",
    "CURRENTDISTRIBUTORFIELDCANNOTBEBLANK": "Current distributor field cannot be blank",
    "CUSTOMER": "CUSTOMER",
    "CUSTOMERGROUP": "CUSTOMER GROUP",
    "CUSTOMERGROUPFIELDCANNOTBEBLANK": "Customer group field cannot be blank",
    "CUSTOMERNAME": "CUSTOMER",
    "CUSTOMERREPORTINGGROUP": "CUSTOMER REPORTING GROUP",
    "DATE": "DATE",
    "EDIT": "Edit",
    "EDITLEAD": "Edit Lead",
    "EMAILADDRESS": "EMAIL ADDRESS",
    "EMAILADDRESSFIELDCANNOTBEBLANK": "Email address field cannot be blank",
    "ENTERAVALIDDATE": "Enter a valid date",
    "ENTERLEADOWNER": "Enter Lead Owner",
    "EVENTS": "EVENTS",
    "EXPECTEDTRADINGDATE": "EXPECTED TRADING DATE",
    "EXPORT": "Export",
    "FROM": "FROM",
    "FROM-LC": "From",
    "IMPORTLEADSTEMPLATE": "Import Leads Template",
    "INCEXCCONVERTED-LC": "Inc./Exc. converted",
    "INCEXCCONVERTED-UC": "INC./EXC. CONVERTED",
    "INDUSTRYGROUP": "INDUSTRY GROUP",
    "INDUSTRYGROUPFIELDCANNOTBEBLANK": "Industry group field cannot be blank",
    "INFORMATION-NA": "Information N/A",
    "INVALIDALTERNATIVENUMBER": "Invalid alternative phone",
    "INVALIDEMAILADDRESS": "Invalid email address",
    "INVALIDPHONENUMBER": "Invalid phone number",
    "LEAD SOURCE": "LEAD SOURCE",
    "LEADALREADYCONVERTED": "Lead is already converted to a customer account.",
    "LEADALREADYLINKED": "Lead is already linked to a customer account.",
    "LEADBRANCH": "DEPOT",
    "LEADBRANCHFIELDCANNOTBEBLANK": "Depot field cannot be blank",
    "LEADCONVERTED": "Lead converted with customer account: ",
    "LEADCONVERTMESSAGE1": "This action will move all events and contacts from lead to the selected customer account,",
    "LEADCONVERTMESSAGE2": "The lead will be permanently deleted. Are you sure you want to continue?",
    "LEADCREATOR": "CREATOR",
    "LEADHASBEENDELETED": "Lead has been deleted.",
    "LEADLINKED": "Lead linked with customer account: ",
    "LEADLINKMESSAGE": "This action will move all events and contacts from lead to the selected customer account, The lead will be permanently deleted. Are you sure you want to continue?",
    "LEADLINKMESSAGE1": "This action will move all events and contacts from lead to the selected customer account,",
    "LEADLINKMESSAGE2": "The lead will be permanently deleted. Are you sure you want to continue?",
    "LEADOWNER": "LEAD OWNER",
    "LEADOWNER-LC": "LEAD OWNER",
    "LEADOWNERCFIELDCANNOTBEBLANK": "Lead owner field cannot be blank",
    "LEADS": "Leads",
    "LEADSOURCE": "LEAD SOURCE",
    "LEADSOURCEFIELDCANNOTBEBLANK": "Lead source field cannot be blank",
    "LEADUPDATED": "Lead has been updated.",
    "LINK": "Link",
    "LOSECHANGEMESSAGE": "You have not saved your current work and will lose changes. Do you want to proceed?",
    "MANYDAYS": "days",
    "MONTHLY": "MONTHLY SPEND",
    "MONTHLYSPEND": "MONTHLY SPEND",
    "MONTHLYSPENDCANNOTBEBLANK": "Monthly spend field cannot be blank",
    "NEWLEAD": "New Lead",
    "NEWLEADSAVED": "New lead saved",
    "NO": "No",
    "NOLEADEXPORTED": "No lead exported",
    "NOLEADSSFOUNDFORTHISSEARCHCRITARIA": "No leads found for this search criteria.",
    "ONEDAY": "day",
    "OWNER": "OWNER",
    "PHONEFIELDCANNOTBEBLANK": "Phone field cannot be blank",
    "PHONENUMBER": "PHONE NUMBER",
    "PLEASECOMPLETEALLTHEMANDATORYFIELDS": "Please complete all mandatory fields",
    "PLEASEENTERVALIDINFORMATION": "Please enter valid information.",
    "POSTCODE": "POST CODE",
    "POSTCODECANNOTBEBLANK": "Post code field cannot be blank",
    "SALESGROUP": "SALES GROUP",
    "SALESGROUPFIELDCANNOTBEBLANK": "Sales group field cannot be blank",
    "SAVE": "Save",
    "SEARCHFORCUSTOMER": "SEARCH CUSTOMER TO LINK WITH LEAD",
    "SEARCHFORCUSTOMERTOCONVERT": "SEARCH CUSTOMER TO CONVERT WITH LEAD",
    "STATUS": "STATUS",
    "STATUS-LC": "Status",
    "STATUSHASBEENCHANGED": "Lead status has been changed.",
    "THISISCONVERTEDLEAD": "This is converted lead",
    "THISLEADISCONVERTEDTO": "This lead is converted to",
    "THISLEADISLINKEDTO": "This lead is linked to",
    "TO": "TO",
    "TO-LC": "To",
    "TOTALPOTENTIAL": "TOTAL POTENTIAL",
    "TOTALPOTENTIALAMOUNT": "TOTAL POTENTIAL AMOUNT",
    "TRADINGDATE": "TARGET TRADING",
    "UNSAVECHANGES": "You have not saved your current work. Do you want to proceed and discard?",
    "YES": "Yes"
  },
  "LOADMORE": "Load More",
  "Max 3 email addresses": "Max 3 email addresses.",
  "Maximum size of attachments is": "Maximum size of attachments is",
  "NOTFOUND": {
    "BACKTOHOME": "Home",
    "ERRORUNAUTHORIZEDEXEPTION": "401 - Unauthorized",
    "NOTFOUND": "Not Found",
    "SORRYANERRORHASOCCURRED": "Sorry, an error has occurred, Requested page not found",
    "SORRYYOUDONTHAVEAUTHORIZATION": "You are not authorized to perform this action."
  },
  "New": "New",
  "New Task": "New Task",
  "No such invoice is available": "No such invoice is available",
  "OPPORTUNITIES": {
    "LISTOFALLTHEPRODUCTS": "List of all products that the customer is buying or not in this subclass",
    "NEWPURCHASE": "NEW PRODUCTS PURCHASED",
    "NEWPURCHASEERROR": "There are no new products purchased",
    "NOPRODUCTSTODISPLAY": "No products to display",
    "OPPORTUNITIES": "Opportunities",
    "OPPORTUNITIES_UC": "OPPORTUNITIES",
    "PRODUCTSNEVERPURCHASED": "PRODUCTS NEVER PURCHASED",
    "PRODUCTSONSPECIAL": "PRODUCTS ON SPECIAL",
    "PRODUCTSONSPECIALERROR": "There are no products on special",
    "SALESDOWN": "SALES DOWN",
    "SALESDOWNERROR": "Amazing! there are no products that have dropped in sales",
    "SALESGAP": "SALES GAP",
    "SALESGAPERROR": "Well done! you don't have any products that have sales gaps",
    "SALESSTOPERROR": "Wow! there are no products that have stopped in sales",
    "SALESSTOPPED": "SALES STOPPED",
    "SALESUP": "SALES UP",
    "SALESUPERROR": "No products have increased in sales",
    "TOOLTIPNEWPURCHASE": "Products which this customer has purchased for the first time in the past 14 days.",
    "TOOLTIPPRODUCTSONSPECIAL": "Shows products that are on promotion for the customer.",
    "TOOLTIPSALESDOWN": "Products which this customer has a lower than average purchase value in the past 14 days.",
    "TOOLTIPSALESGAP": "Products with high purchase value in same market segment but not purchased by this customer.",
    "TOOLTIPSALESSTOPPED": "Products which this customer has not purchased in the past 14 days.",
    "TOOLTIPSALESUP": "Products which this customer has a higher than average purchase value in the past 14 days."
  },
  "ORDERS": {
    "BIDIQORDERS": "BidIQ Orders",
    "CREATED": "CREATED",
    "CUST": "Cust",
    "CUSTOMER": "CUSTOMER",
    "DATE": "DATE",
    "NOORDERSFOUND": "No orders found for this search criteria.",
    "ORDERCREATOR": "ORDER CREATOR",
    "ORDERCREATOR-LC": "Order Creator",
    "ORDERNUMBER": "ORDER NUMBER",
    "ORDERS": "Orders",
    "REFERENCE": "REFERENCE",
    "STATUS": "STATUS",
    "STATUS-LC": "Status",
    "WEB": "Web"
  },
  "Overdue": "Overdue",
  "PAGINATOR": {
    "FIRST_PAGE": "First page",
    "ITEMS_PER_PAGE": "Items per page:",
    "LAST_PAGE": "Last page",
    "NEXT_PAGE": "Next page",
    "PREVIOUS_PAGE": "Previous page"
  },
  "PLANNER": {
    "ADDAPPOINTMENT": "Add Appointment",
    "ADDAPPOINTMENT-UC": "ADD APPOINTMENT",
    "ADDMEETING": "Add Meeting",
    "ADDPOD": "Add Rotation",
    "ADDPOD-UC": "ADD ROTATION",
    "AFTERNOON": "AFTERNOON",
    "AGENDA": "AGENDA",
    "AGENDA-LC": "Agenda",
    "ALLCUSTOMERS&LEADS": "ALL CUSTOMERS & LEADS",
    "ANYTIME": "Anytime",
    "AREYOUSUREYOUWANTTODELETETHISPOD": "Are you sure you want to delete this Rotation?",
    "ATTENDEES": "Attendees",
    "BIGGESTPOTENTIAL": "Biggest Potential",
    "BIGGESTSALE": "Biggest Sale",
    "CANCELAPPOINTMENT": "Cancel Appointment",
    "CANCELDEFAULTOCCURRENCEMESSAGEFIRSTPART": "This customer will be removed from ",
    "CANCELDEFAULTOCCURRENCEMESSAGESECONDPART": " rotation. Are you sure you want to continue?",
    "CANCELMEETING": "Cancel Meeting",
    "CANCELMEETINGMESSAGE": "Are you sure you want to cancel this meeting?",
    "CANCELMEETINGSERIESMESSAGE": "Are you sure you want to cancel all meetings in the selected series?",
    "CANCELOCCURRENCE": "Cancel Appointment",
    "CANCELOCCURRENCE-UC": "CANCEL APPOINTMENT",
    "CANCELOCCURRENCEMESSAGE": "Are you sure you want to cancel this appointment?",
    "CANCELSERIES": "Cancel Series",
    "CANCELSERIES-UC": "CANCEL SERIES",
    "CANCELSERIESMESSAGE": "Are you sure you want to cancel all appointments in the selected series?",
    "CANNOTASSIGNMORETHAN": "Cannot assign more than",
    "CANNOTUNASSIGNMORETHAN": "Cannot unassign more than",
    "CHANGEDEFAULTSERIESMESSAGE": "Changes to this series will remove the customer from the",
    "CLEAROVERDUE": "Clear Overdue",
    "CLEAROVERDUEMESSAGE": "Are you sure you want to clear all overdue appointment?",
    "CLEAROVERDUESUCCESS": "Overdue appointments cleared successfully",
    "CLICK": "Click",
    "CLOSEAPPOINTMENT": "Close Appointment",
    "CLUSTERS": "CLUSTERS",
    "COMMITTEDCALLS": "Committed Calls",
    "COMMITTEDVISITS": "Committed Visits",
    "COMPLETEAPPOINTMENT": "Complete Appointment",
    "COMPLETED": "Completed",
    "COMPLETEDCALLS": "Completed Calls",
    "COMPLETEDV/C": "Completed Visits/Calls",
    "COMPLETEDVISITS": "Completed Visits",
    "CONFIRMEDV/C": "Confirmed Visits/Calls",
    "CONTACTPERSON": "CONTACT PERSON(S)",
    "CUSTOMER": "CUSTOMER",
    "CUSTOMERLEAD": "CUSTOMER/LEAD",
    "CUSTOMERS": "customers",
    "CUSTOMERS&LEADS": "CUSTOMERS & LEADS",
    "DATE": "DATE",
    "DAY": "Day",
    "DAYVIEW": "Day View",
    "DELETEPOD-LC": "Delete",
    "DELETEPODMESSAGE": "All customers will be removed from the rotation but their individual appointments will still remain. Are you sure you want to continue?",
    "DETAILS": "DETAILS",
    "DRAGACUSTOMERHERE": "Drag a customer here",
    "DROPMULTIPLECUSTOMERFROMDIFFERENTPOD": "You cannot drag and drop multiple customers by selecting customers in different rotations and customer list",
    "DURATION": "DURATION",
    "EDITAPPOINTMENT": "EDIT APPOINTMENT",
    "EDITAPPOINTMENT-LC": "Edit Appointment",
    "EDITMEETING": "Edit Meeting",
    "EDITOCCURRENCE": "Edit Appointment",
    "EDITPOD": "EDIT ROTATION",
    "EDITPOD-LC": "Edit",
    "EDITPOD-TITLE-LC": "Edit Rotation",
    "EDITSERIES": "Edit Series",
    "ENDDATE": "END DATE",
    "FROM-LC": "From",
    "HASBEENUPDATED": "has been updated.",
    "HERE": "here",
    "ISASSIGNEDTO": " is assigned to ",
    "ISUNASSIGNEDFROM": " is unassigned from ",
    "LASTCOMMUNICATION": "Last Communication",
    "LASTINBOUNDCALL": "Last inbound call",
    "LOCATION": "LOCATION",
    "LOCATION-LC": "Location",
    "MAXIMUMATTENDEESCANBE": "Maximum attendees can be",
    "MEETINGHASBEENDELETED": "The meeting has been deleted",
    "MEETINGHASBEENUPDATED": "The meeting has been updated",
    "MONTH": "Month",
    "MORNING": "MORNING",
    "MYCUSTOMERS&LEADS": "MY CUSTOMERS & LEADS",
    "MYROTATIONS": "MY ROTATIONS",
    "NEWAPPOINTMENTHASBEENADDED": "New appointment has been added.",
    "NEWMEETINGBEENADDED": "New meeting has been added.",
    "NEWPODHASBEENADDED": "New Rotation has been added.",
    "NOAPPOINTMENTS": "No appointments.",
    "NOATTENDEE": "No Attendee",
    "NOCUSTOMERSFOUND": "No customers found",
    "NOOTHERAPPOINTMENT": "No Other Appointments",
    "NORECENTEVENTS": "No Recent Events",
    "NORECENTOCCURRENCES": "No other Appointments",
    "NOSCHEDULEDAPPOINTMENTS": "There are no appointments for this time period",
    "OCCURRENCEHASBEENDELETED": "The appointment has been deleted",
    "OCCURRENCESHASBEENDELETED": "An appointment has been deleted.",
    "OCCURRENCESHAVEBEENDELETED": "The appointments have been deleted",
    "ON-LC": "on",
    "ORGANIZER": "Organiser",
    "ORGANIZER-UC": "ORGANISER",
    "ORIGNALLYPLANNEDON": "Orignally planned on",
    "OTHERAPPOINTMENTS": "OTHER APPOINTMENTS",
    "OTHERAPPOINTMENTS-LC": "Other Appointments",
    "OUTBOUNDCALL": "Outbound call",
    "OVERDUE": "OVERDUE",
    "OVERDUEDV/C": "Overdue Visits/Calls",
    "PERIOD": "Period",
    "PLANNED": "Planned",
    "PLANNEDCALLS": "Planned Calls",
    "PLANNEDVISITS": "Planned Visits",
    "PLANNER": "Planner",
    "PLANNER-UC": "PLANNER",
    "PLANNERPROFILE": "PlannerReport",
    "PLANNERREPORT": "Report",
    "POD": " Rotation",
    "PODDELETEWARNING": "Customer will no longer be in a Rotation but their individual appointments will still remail.",
    "PODHASBEENDELETED": "Rotation has been deleted",
    "PODHASBEENUPDATED": "Rotation has been updated.",
    "PODNAME": "ROTATION NAME",
    "PODS": "ROTATIONS",
    "PODS-LC": "Rotations",
    "POTENTIAL": "Potential (8W)",
    "RECURINGAPPOINTMENT": "RECURRING",
    "REMOVECLUSTER": "Delete Rotation",
    "REMOVEFROMPOD": "Remove from Rotation",
    "REMOVEFROMPODMESSAGE": "Are you sure you want to remove this customer from Rotation?",
    "REPEATON": "REPEAT ON",
    "REPEATSEVERY": "REPEATS EVERY",
    "RESCHEDULE": "Reschedule",
    "ROTATION_LC": " rotation",
    "RUN/SEQUENCE": "Run/Sequence",
    "RUNSEQUENCENUMBER": "Run/Sequence Number",
    "SALE": "Sales (8W)",
    "SCHEDULE": "SCHEDULE",
    "SCHEDULE-LC": "Schedule",
    "SERIESHASBEENDELETED": "The series have been deleted",
    "SHOWWEEKENDS": "Show Weekends",
    "SINGLEAPPOINTMENTMESSAGE": "You are viewing a single appointment that is part of a series",
    "SOMETHINGWENTWRONG": "Oops! Something went wrong! Please try again.",
    "STARTDATE": "START DATE",
    "STARTTIME": "START TIME",
    "SUBJECT": "Subject",
    "SUBJECT-UC": "SUBJECT",
    "THEOCCURRENCEHASBEENUPDATED": "The appointment has been updated",
    "THESERIESHAVEBEENUPDATED": "The series have been updated",
    "THISISADEFAULTSCHEDULEFOR": "This is the default schedule for ",
    "THISWEEK": "This week",
    "TO-LC": "To",
    "TODAY": "Today",
    "TODAYSAPPOINTMENTS": "Today's Appointments",
    "TOTLALCOMPLETED": "Total Completed",
    "TOTLALPLANNED": "Total Planned",
    "TYPE": "TYPE",
    "UNCONFIRMEDV/C": "Unconfirmed Visits/Calls",
    "USER": "User",
    "VIEW": "View",
    "VISIT": "Visit",
    "WEEK": "Week",
    "WEEKVIEW": "Week View",
    "WORKWEEK": "Work Week",
    "YOUCANNOTDELETETHELASTPOD": "You cannot delete the last Rotation",
    "YOURCUSTOMERS&LEADS": "YOUR CUSTOMERS & LEADS",
    "YOURPODS": "YOUR ROTATIONS"
  },
  "PRODUCT": {
    "ALLPRODUCTS": "All Products",
    "PREVIOSPURCHASES": "Previous Purchases"
  },
  "PRODUCTS": {
    "ADD": "ADD",
    "ADD-LC": "Add",
    "ADDEDTOTHEBASKET": "added to the basket",
    "ADDPRODUCT": "ADD PRODUCT",
    "ADDTOQUOTE": "Add To Quote",
    "ALREADYINQUOTE": " are already in the quote.",
    "AMOUNT": "AMOUNT",
    "APPLY": "Apply",
    "BACKORDER-LC": "Backorder",
    "BACKORDERS": "BACK ORDERS",
    "BASKETMARGIN": "Basket Margin",
    "BELOWMARGINLIMIT": "Highlighted products are below margin limit.",
    "BROWSE": "Browse",
    "CANCEL": "Cancel",
    "CANNOTHAVEQUANTITYMORETHAN": "cannot have quantity more than",
    "CATALOGUEPRICE": "Catalogue Price",
    "CATALOGUEPRICE-UC": "CATALOGUE PRICE",
    "CATEGORY": "CATEGORY",
    "CATEGORY-LC": "Category",
    "CHOOSEACATEGORY": "Choose a category",
    "CHOOSEASTATUS": "Choose a status",
    "CHOOSEATYPE": "Choose a type",
    "CLAIM": "claim",
    "CLAIMBACK": "Claim Back",
    "CLAIMBACK-UC": "CLAIM BACK",
    "COMPETITORDOCUMENTATION": "COMPETITOR DOCUMENTATION",
    "COMPETITORNAME": "COMPETITOR NAME",
    "COMPETITORPRICE": "COMPETITOR PRICE",
    "COMPETITORUOM": "COMPETITOR UOM",
    "COST": "COST",
    "COST-LC": "Cost",
    "CUSTOMERPRICE": "CUSTOMER PRICE",
    "CUSTOMERREBATE": "Customer Rebate",
    "DAILY": "Daily",
    "DATASHEET": "Datasheet",
    "DATE": "Date",
    "DISCOUNT": "Discount",
    "DISCOUNT-UC": "DISCOUNT",
    "DISCOUNTABLE": "DISCOUNTABLE",
    "ENTERCHARACTER": "Please, enter at least one character.",
    "INCTAX": "Inc Tax",
    "LASTINVOICE": "LAST INVOICE",
    "LOWSTOCK": "Low stock",
    "MARGIN": "MARGIN",
    "MARGIN-LC": "Margin",
    "MARGINDOLLAR": "Margin Dollar",
    "MAXLENGTH": "The max length for this field is 200 characters.",
    "MONTHLY": "Monthly",
    "NA": "N/A",
    "NOPREVIOUSPURCHASES": "NO PREVIOUS PURCHASES",
    "NOPREVIOUSPURCHASESFORDAYS": "No purchase history for [NoOfDays] days",
    "NOPREVIOUSPURCHASESMESSAGE": "the product hasn't been purchased in the last",
    "NOPRODUCTFOUND": "No products found for this search criteria.",
    "NOPRODUCTSFOUND": "NO PRODUCTS FOUND",
    "NOPRODUCTSFOUNDMESSAGE": "try searching by a product name, category, or brand to get started",
    "NOPRODUCTSSELECTED": "No products selected.",
    "NOTES": "NOTES",
    "NOTIMPORTED": " are not imported to the selected quote.",
    "ONBACKORDER": "Backorder",
    "ORDERHISTORY": "Order History",
    "ORDERQUANTITY": "Order Quantity",
    "PREVIOUSPURCHASENOTFOUNDMESSAGE": "No product found that matches your search query",
    "PREVIOUSPURCHASES": "PREVIOUS PURCHASES",
    "PRICE": "PRICE",
    "PRICE-LC": "Price",
    "PRICEEXP": "PRICE EXP",
    "PRICINGNODE": "PRICING NODE",
    "PRIVATE": "Private",
    "PRODUCT": "PRODUCT",
    "PRODUCT-LC": "Product",
    "PRODUCTDETAILS": "PRODUCT DETAILS",
    "PRODUCTNA": "Information N/A",
    "PRODUCTS": "Products",
    "PRODUCTSEARCH": "Product Search",
    "PRODUCTSEARCH-UC": "PRODUCT SEARCH",
    "PRODUCTSEARCHMESSAGE": "search products by keyword or SKU",
    "PRODUCTSTATUS": "PRODUCT STATUS",
    "PROMOTIONEND": "Promotion End",
    "PROMOTIONPRICE": "PROMOTION PRICE",
    "PROMOTIONSTART": "Promotion Start",
    "PURCHASEHISTORY": "PURCHASE HISTORY",
    "PURCHASEORDER": "PURCHASE ORDER",
    "QUANTITY": "QUANTITY",
    "QUARTERLY": "Quarterly",
    "QUOTE": "QUOTE",
    "QUOTEPRICE": "Quote Price",
    "REBATE": "REBATE",
    "REMOVEDFROMTHEBASKET": "removed from the basket",
    "RESTRICTEDUOM": "Restricted UOM",
    "SEARCH": "Search",
    "SEARCHPRODUCTS": "Search products",
    "SELECTALL": "Select All",
    "SIMILARPRODUCTS": "Similar Products",
    "SOH": "SOH",
    "STATUS": "STATUS",
    "STATUS-LC": "Status",
    "STOCK": "STOCK",
    "SUBTOTAL": "Subtotal",
    "TAX": "TAX",
    "TAXGST": "Tax (VAT)",
    "TOTAL": "Total",
    "TYPE": "Type",
    "TYPE-LC": "Type",
    "UNITPRICE": "Price",
    "UNKNOWNERROR": "An unknown error has occurred",
    "UNKNOWNERROROCCURRED": "UNKNOWN ERROR OCCURRED",
    "UOM": "UOM",
    "UOMRESTRICTED": "Restricted UOM",
    "VENDORCODE": "VENDOR CODE",
    "VENDORCODECANNOTBEBLANK": "Vendor Code field cannot be blank",
    "WAREHOUSE": "DEPOT",
    "WEEKLY": "Weekly"
  },
  "PRODUCTTYPE": {
    "EXCLUSIVEBRAND": "Exclusive Brand"
  },
  "Print": "Print",
  "Product is not available in the selected invoice or has been added already": "Product is not available in the selected invoice or has been added already.",
  "Products": {
    "Total": "Total"
  },
  "QUOTES": {
    "ACCEPTBY": "ACCEPT BY",
    "ACCEPTED": "Accepted",
    "ACCEPTEDDATE": "ACCEPTED",
    "ACCEPTEDFORCUSTOMER": "Accepted For Customer",
    "ACCOUNT": "ACCOUNT",
    "ACCOUNTS": "Accounts",
    "ADDPRODUCTTOQUOTE": "Add products to quote.",
    "APPLY": "Apply",
    "APPROVED": "Approved",
    "APPROVERSEMAILADDRESS": "APPROVER'S EMAIL",
    "AREYOUSUREYOUWANTTOACCEPTTHISQUOTEFORCUSTOMER": "Are you sure you want to accept this quote for customer?",
    "AREYOUSUREYOUWANTTODELETETHISQUOTE": "Are you sure you want to delete this quote?",
    "ATT": "ATT",
    "CANCEL": "Cancel",
    "CHANGECUSTOMERACCOUNTFROM": "You're going to change the customer account from ",
    "CHANGEREQUIRED": "Change Required",
    "CHOOSEADATE": "Choose a date",
    "CHOOSEAEXPIRY": "Choose a expiry",
    "CHOOSEANACCOUNT": "Choose an account",
    "CHOOSEASTATUS": "Choose a status",
    "CLEARPRICEEXPIREDONCLONE": "Duplicating the quote will clear the Price Expiry field and Quote price will change to the customer price. Do you want to proceed?",
    "CLONESUCCESSFUL": "Clone successful",
    "CONTINUE": "Continue",
    "COULDNOTFINDACCOUNT": "Sorry could not find Selected Account",
    "CREATEDBY": "CREATED BY",
    "CREATOR": "Creator",
    "CUSTOMER": "CUSTOMER",
    "CUSTOMERAPPROVED": "Customer Accepted",
    "CUSTOMERDECLINED": "Customer Declined",
    "DATE": "DATE",
    "DATECREATED": "CREATED",
    "DATEMODIFIED": "MODIFIED",
    "DRAFT": "Draft",
    "EFFECTIVEDATE": "EFFECTIVE DATE",
    "EMAILSENTSALEREP": "Email notification sent sales rep.",
    "ENTERAVALIDDATE": "Enter a valid date",
    "ENTERVALIDAMOUNT": "Please enter valid amount for product",
    "ENTERVALIDVENDORCODE": "Please enter valid vendor code for product",
    "EXCGST": "(Exc. VAT)",
    "EXPIRED": "(Expired)",
    "EXPIRED-UC": "(EXPIRED)",
    "EXPIRES": "Expires",
    "EXPIRES-UC": "EXPIRES",
    "EXPIRY-TITLE": "EXPIRY",
    "EXPIRY-TITLE-LC": "Expiry",
    "EXPIRYDATE": "EXPIRY DATE",
    "EXPORT": "Export",
    "FROM": "FROM",
    "FROM-LC": "From",
    "IMPORTSUCCESSFUL": "Import successful.",
    "INCLUDE/EXCLUDEEXPIRED": "INC./EXC. EXPIRED",
    "INCLUDE/EXCLUDEEXPIRED-LC": "Inc./Exc. expired",
    "INVALIDEMAILADDRESS": "Invalid email address",
    "INVALIDFILEFORMAT": "Invalid file format, please choose valid .csv files",
    "LOCAL": "Local",
    "MESSAGE": "MESSAGE",
    "NAMEREFERENCETITLE": "Name, reference, title",
    "NATIONAL": "National",
    "NEW": "NEW",
    "NEW-LC": "New",
    "NEWQUOTE": "New Quote",
    "NO": "No",
    "NO-UC": "NO",
    "NOACCESS": "You don't have permission to see the quote.",
    "NOPERMISSION": "No Permission",
    "NOQOOTESFORTHESELECTEDCUSTOMER": "No quotes for the selected customer.",
    "NOQUOTEEXPORTED": "No quote exported",
    "NOQUOTESFOUNDFORTHISSEARCHCRITARIA": "No quotes found for this search criteria.",
    "OLDPRICE": "OLD PRICE",
    "PACKSIZE": "Pack Size",
    "PENDING": "Pending",
    "PENDINGCUSTOMERAPPROVAL": "Pending Customer Approval",
    "PREVIEWITHERE": "Preview it here",
    "PRICE": "PRICE",
    "PRICE FOR CPG": "PRICE FOR CPG",
    "PRICECHANGED": "Price changed",
    "PRICEEXPIRY": "PRICE EXPIRY",
    "PRICEFORCPG": "PRICE FOR CPG",
    "PRICESQUOTEDAREEXCLUSIVEOFTAX": "Prices quoted are exclusive of VAT",
    "PRICESTART": "PRICE START",
    "PRINTMESSAGE": "In accepting the quotation you accept the pricing can take 24-48 hours to be activated to your account. Purchases prior to this activation will be at the previous price and may require an Account Manager to credit the difference when you purchase.",
    "PRODUCT": "PRODUCT",
    "QTY": "QTY",
    "QUOTE-LC": "Quote",
    "QUOTEAPPROVED": "Quote approved.",
    "QUOTEAUTOAPPROVED": "Quote has been automatically approved.",
    "QUOTECREATOR": "QUOTE CREATOR",
    "QUOTEDELETEFIRSTPART": "Quote ",
    "QUOTEDELETESECONDPART": " deleted.",
    "QUOTEFOR": "QUOTE FOR",
    "QUOTEFORMAT": "QUOTE FORMAT",
    "QUOTEID": "QUOTE ID",
    "QUOTEPREVIEW": "Quote Preview",
    "QUOTEPRODUCTS": "Quote products",
    "QUOTES": "Quotes",
    "QUOTES-UC": "QUOTES",
    "REFERENCE": "REFERENCE",
    "REMOVEDPRODUCTCODESMESSAGE": "not added to the quote.",
    "REMOVEDPRODUCTCODESMESSAGETOORDER": "product code(s) have been removed.",
    "RESAVEASDRAFTFOREXPIREDQUOTE": "This Quote is expired. Do you want to re-save it as a draft?",
    "SALESPHONE": "SALES PHONE",
    "SALESREP": "SALES REP",
    "SALESREPRESENTATIVE": "SALES REPRESENTATIVE",
    "SAVEASDRAFT": "Saved as draft.",
    "SAVEASPDF": "Save As PDF",
    "SEARCH": "Search",
    "SELECTED": "Selected",
    "SELECTEFFECTIVEDATE": "Select effective date",
    "SENDINGAS": "SENDING AS",
    "SENDINGTO": "SENDING TO",
    "SENDTOPRICEINGTEAM": "Sent to Pricing team",
    "SENTFORAPPROVAL": "Sent for approval.",
    "SENTTOCUSTOMER": "Sent to customer",
    "SHOWPRICEINFORMATION": "Show price information",
    "SIGNATURE": "Signature",
    "STATUS": "STATUS",
    "STATUSES": "Statuses",
    "SUBJECT": "SUBJECT",
    "SUBTOTAL": "Subtotal",
    "TAX": "Tax",
    "TAXGST": "Tax (VAT)",
    "THISFIELDCANNOTBEBLANK": "This field cannot be blank",
    "TO": "TO",
    "TO-LC": "To",
    "TO-SPACE": " to ",
    "TOTAL": "Total",
    "TOTAL-UC": "TOTAL",
    "UNSAVECHANGES": "You have not saved your current work. Do you want to proceed and discard?",
    "UOM": "UOM",
    "UPDATEPRODUCTTOQUOTE": "Updated product.",
    "YES": "Yes",
    "YES-UC": "YES",
    "YOURCLIENTWILLRECEIVEALINKTOVIEW,ACCEPTORDECLINETHEESTIMATE": "Your client will receive a link to view, accept or decline the estimate"
  },
  "Quote": {
    "Total": "Total"
  },
  "RESULTS": "results",
  "Remove Product": "Remove Product",
  "SALES": {
    "ACCOUNT": "Account",
    "AVERAGECREDITVALUE": "Average Credit Value",
    "AVERAGEINVOICELINES": "Average Invoice Lines",
    "AVERAGEINVOICEPIECES": "Average Invoice Pieces",
    "AVERAGEINVOICEVALUE": "Average Invoice Value",
    "AVERAGEMARGIN": "Average Margin",
    "BIGGESTINVOICE": "Biggest Invoice",
    "BRAND": "BRAND",
    "CATEGORY": "Category",
    "CODE": "Code",
    "CREDITCOUNT": "Credit Count",
    "CREDITLINERATIO": "Credit Lines Ratio",
    "CREDITLINES": "Credit Lines",
    "CREDITRATIO": "Credit Ratio",
    "CURRENT": "(Current)",
    "CURRENTDATERANGE": "Current Period",
    "CURRENTMARGIN": "Current Margin",
    "CURRENTSALES": "Current Sales",
    "CURRENTSELECTED": "Selected",
    "CURRENTTOTAL": "Current Total",
    "CURRENTTOTALSALES": "Current Total Sales",
    "DATERANGE": "Period",
    "DAYS": "days",
    "EIGHTWEEKS": "8 weeks",
    "EXPORT": "Export",
    "INVENTORY": "Inventory",
    "INVENTORYCATEGORY": "Inventory Category",
    "INVOICECOUNT": "Invoice Count",
    "LASTMONTHMARGIN": "Last Month Margin",
    "LASTMONTHSALES": "Last Month Sales",
    "LASTMONTHTOTALMARGIN": "Last Month Total Margin",
    "MARGIN": "Margin",
    "MONTHS": "months",
    "MONTHTODATE": "Month to date",
    "NAME": "Name",
    "NOSALES": "NO SALES",
    "NOSALESEXPORTED": "No Sales Exported",
    "NOSALESFOUNDMESSAGE": "There are no sales in",
    "PREVIOUSMARGIN": "Previous Margin",
    "PREVIOUSSALES": "Previous Sales",
    "PRODUCTCODE": "Product Code",
    "PRODUCTDETAILS": "Product Details",
    "PRODUCTLINE": "Product Line",
    "PRODUCTLINES": "Product Line",
    "PRODUCTLIST": "Sales Report",
    "PRODUCTS": "Product",
    "QUANTITY": "Quantity",
    "REPORT": "Report",
    "ROLLING": "Rolling 8 days",
    "SALES": "SALES",
    "SALES-LC": "Sales",
    "SALESCATEGORY": "Sales Category",
    "SALESREPORTFILE": "SalesReport",
    "SALESSTATS": "Sales Stats",
    "SMALLESTINVOICE": "Smallest Invoice",
    "THIRTEENMONTHS": "13 months",
    "THREEMONTHS": "3 months",
    "TOTAL": "Total",
    "TOTALCREDITVALUE": "Total Credit Value",
    "TOTALMARGIN": "Total Margin",
    "TOTALSALES": "Total Sales",
    "TWOWEEKS": "2 weeks",
    "UOM": "UOM",
    "WEEKS": "weeks"
  },
  "SCHEDULES": "Schedules",
  "SEARCH-CUSTOMER": {
    "ADDRESS": "ADDRESS",
    "CUSTOMER": "CUSTOMER",
    "CUSTOMERTYPE": "Customer type",
    "EVENT": "EVENT",
    "EVENTTYPE": "Event type",
    "INDUSTRYGROUP": "Industry group",
    "INDUSTRYTYPE": "Industry type",
    "LOCAL": "Local",
    "NATIONAL": "National",
    "NOCUSTOMERSFOUND": "No customers found",
    "NORECENTEVENTS": "No recent events",
    "PHONE": "PHONE",
    "PHYSICALADDRESS": "PHYSICAL ADDRESS",
    "REP": "REP",
    "REPCODE": "REP CODE",
    "SALES": "SALES",
    "SALES-8WEEKS": "SALES (8W)",
    "SALESGROUP": "Sales group",
    "TITLE": "Customers",
    "TITLE-UC": "CUSTOMERS"
  },
  "SIDEMENU": {
    "ADMIN": "Admin",
    "CONFIDENTIAL": "Confidential",
    "CUSTOMERS": "Customers",
    "EVENTS": "Events",
    "LEADS": "Leads",
    "PRODUCTS": "Products",
    "QUOTES": "Quotes"
  },
  "SIGNALR": {
    "CLEARALL": "Clear All",
    "DOWNLOADS": "Downloads",
    "NONEWDOWNLOADS": "No New Downloads",
    "NONEWNOTIFICATIONS": "No new notifications from this session",
    "NOTAVAILABLE": "Service is currently unavailable. Please refresh the page or try again later.",
    "NOTIFICATIONS": "Notifications"
  },
  "SLETTER": {
    "S": "'s"
  },
  "Save": "Save",
  "Selecting done will close off this complaint": "Selecting done will close off this task. Do you want to proceed?",
  "Start Complaint": "Start Complaint",
  "TITLE_MR": "Mr",
  "TITLE__K": "K",
  "TITLE__L": "L",
  "TITLE__MRS": "Mrs",
  "TITLE__MS": "Ms",
  "TITTLE__MR": "Mr",
  "TRANSACTIONS": {
    "ACCOUNT": "ACCOUNT",
    "ACCOUNT-LC": "Account",
    "BRAND": "BRAND",
    "CHOOSEANACCOUNT": "Choose an account",
    "CHOOSEATYPE": "Choose a type",
    "COPY": "copy",
    "CREATEDDATE": "CREATED DATE",
    "CREDIT": "Credit",
    "CREDITDATE": "Credit date",
    "CREDITNO": "Credit No",
    "CUSTOMERCODE": "Customer Code",
    "CUSTOMERVATNO": "Customer VAT No",
    "DELIVERYDATE": "DELIVERY DATE",
    "DELIVERYDATE-LC": "Delivery date",
    "DESCRIPTION": "DESCRIPTION",
    "DISCOUNT": "DISCOUNT",
    "EMAIL": "Email",
    "FOR": "for",
    "FREIGHT": "FREIGHT",
    "INVOICE": "Invoice",
    "INVOICEDATE": "Invoice date",
    "INVOICENO": "INVOICE NO",
    "INVOICENO-LC": "Invoice No",
    "MINTHREECHARACTERS": "Minimum of 3 characters required for searching transactions.",
    "NOTRANSACTIONSFOUND": "NO TRANSACTIONS FOUND",
    "NOTRANSACTIONSFOUNDMESSAGE": "try searching by a transaction number or reference",
    "ORDER": "Order",
    "ORDERCOPY": "Order Copy",
    "ORDERDATE": "Order date",
    "ORDERNO": "Order No",
    "OTHERCHARGES": "OTHER CHARGES",
    "PACKSIZE": "PACK SIZE",
    "PLEASESEEATTACHED": "Please see attached",
    "PRICE": "PRICE",
    "PRODUCTCODE": "PRODUCT",
    "QUANTITYSUPPLIED": "QUANTITY",
    "SUBTOTAL": "SUBTOTAL",
    "TAX": "VAT",
    "TAXCREDITCOPY": "Credit Copy",
    "TAXINVOICECOPY": "Invoice Copy",
    "TOTAL": "TOTAL",
    "TRANSACTIONS": "Transactions",
    "TRANSACTIONTYPE": "TRANSACTION TYPE",
    "TRANSACTIONTYPE-LC": "Transaction Type",
    "TYPE": "TYPE",
    "UNITOFMEASURE": "UOM",
    "UNITPRICE": "UNIT PRICE",
    "WEBORDER": "Web/Order",
    "WEBORDERREF": "Web/Order Ref",
    "YOURORDER": "Your Order",
    "YOURORDERREF": "Your Order Ref"
  },
  "Task Details": "Task Details",
  "This will cancel the complaint and it cannot be reopened. Are you sure?": "This will cancel the complaint and it can't be reopened. Are you sure?",
  "This will close the complaint and it cannot be reopened. Are you sure?": "This will close the complaint and it can't be reopened. Are you sure?",
  "View": "View",
  "You cannot close complaint without closing all the tasks.": "You cannot close complaint without closing all the tasks.",
  "You cannot close complaint without providing resolution.": "You cannot close complaint without providing resolution.",
  "You have not saved your current work and will lose changes Do you want to proceed": "You have not saved your current work and will lose changes. Do you want to proceed?",
  "You have not saved your current work and will lose changes. Do you want to proceed?": "You have not saved your current work and will lose changes. Do you want to proceed?"
}