{
  "ADMIN": {
    "ADD": "AGREGAR",
    "ADDITIONALREPCODE(S)": "CÓDIGOS REP ADICIONALES",
    "ADDITIONALREPCODES": "CÓDIGOS DE REPRODUCCIÓN ADICIONALES",
    "ADDMARGIN": "AGREGAR MARGEN",
    "ADDMARGINLIMITMESSAGE1": "Los márgenes se actualizarán para todos los productos bajo",
    "ADDMARGINLIMITMESSAGE2": "¿Estas seguro que deseas continuar?",
    "ADDMARGINLIMITMESSAGE3": "El límite de margen existente se sobrescribirá.",
    "ADDMARGINLIMITTOAPRODUCT": "Agregar límite de margen a un producto",
    "ADDMARGINLIMITTOCLASS": "Agregar límite de margen a la clase",
    "ADDMARGINLIMITTOPRODUCTLINE": "Add Margin Limit to product line",
    "ADDMOREBRANCHES/ROLES": "Agregar más sucursales / roles",
    "ADDUSER": "Agregar usuario",
    "ADDUSERS": "Agregar usuarios",
    "APPLY": "Aplicar",
    "AREYOSUREYOUWANTTOPROCEED": ". ¿Estas seguro que deseas continuar?",
    "BRANCH": "SUCURSAL",
    "BRANCHES": "Ramas",
    "CANCEL": "Cancelar",
    "CANCEL-UC": "CANCELAR",
    "CHOOSEABRANCH": "Elige una sucursal",
    "CHOOSEAROLE": "Elegir un rol",
    "CHOOSEAUSERSTATE": "Elija un estado de usuario",
    "CHOOSEAWAREHOUSE": "Choose a warehouse",
    "CLASS": "Clase",
    "CLASS-UC": "CLASE",
    "CODE": "Código",
    "DEFAULTREPCODES": "REPRESENTANTE DE VENTAS PREDETERMINADO",
    "DELETE": "ELIMINAR",
    "DELETEMARGINLIMITMESSAGE": "El límite de margen existente se borrará para ",
    "DELETEUSERMESSAGE": "¿Está seguro de que desea desactivar",
    "EDIT": "EDITAR",
    "EDITACCOUNT": "Editar cuenta",
    "EDITUSER": "Editar usuario",
    "EMAIL": "CORREO ELECTRÓNICO",
    "ENTERBRANCH": "Entrar una sucursal",
    "ENTERCHARACTER": "Por favor, ingrese al menos un carácter.",
    "ENTERNAME": "Ingrese el nombre",
    "ENTERREPCODE": "Ingrese el código de representante",
    "ENTERROLE": "Introducir rol",
    "ENTERVALIDEMAIL": "Ingrese un correo electrónico válido",
    "ENTERWAREHOUSEACCOUNT": "Ingresar cuenta de almacén",
    "EXISTINGMARGINLIMITWILLBECLEAREDFOR": "El límite de margen existente se borrará para ",
    "EXISTINGMARGINLIMITWILLBECLEAREDFORALLPRODUCTS": "El límite de margen existente se borrará para todos los productos bajo ",
    "EXISTINGMARGINLIMITWILLBEOVERWRITTEN": "El límite de margen existente se sobrescribirá. ¿Estas seguro que deseas continuar?",
    "GENERICACCOUNT": "Cuenta Genérica",
    "GENERICACCOUNT-UC": "CUENTA GENÉRICA",
    "INACTIVATE": "INACTIVAR",
    "INCEXCINACTIVEUSER-LC": "Inc./Exc. Usuarios inactivos",
    "INCEXCINACTIVEUSER-UC": "INC./EXC. USUARIOS INACTIVOS",
    "INFORMATION-NA": "Información N / A",
    "INVALIDVALUE": "Valor no válido",
    "MANAGEUSER": "Administrar usuario",
    "MANAGEUSER-UC": "GESTIONAR USUARIO",
    "MARGINLIMIT": "Límite de margen",
    "MARGINLIMIT-UC": "LIMITE DE MARGEN",
    "MARGINLIMITCLEARED": "Se borra el límite de margen",
    "MARGINSWILLBEUPDATEDTOALLPRODUCTSUNDER": "Los márgenes se actualizarán para todos los productos bajo ",
    "MARGINUPDATED": "Se ha actualizado el límite de margen.",
    "MARGINWILLBEAPPLIEDTOTHISPRODUCTONLY": "Los márgenes se aplicarán solo a este producto. El límite de margen existente se sobrescribirá. ¿Estas seguro que deseas continuar?",
    "MUSTHAVEAEMAILADDRESS": "Debe tener una dirección de correo electrónico",
    "MUSTHAVEANACCOUNT": "Debe tener una cuenta",
    "NAME": "Nombre",
    "NAME-UC": "NOMBRE",
    "NO": "No",
    "NOCLASSFOUND": "No se encontraron clases.",
    "NOGENERICFOUND": "No se encontraron cuentas genéricas.",
    "NOPRODUCTFOUND": "No se encontraron productos para este criterio de búsqueda.",
    "NOPRODUCTLINESFOUND": "No product lines found.",
    "NOPRODUCTSFOUND": "No se encontraron productos.",
    "NOREPCODES": "Sin Representante de Ventas",
    "NOTREQUIRED": "No requerido",
    "NOUSERSFOUND": "No se encontraron usuarios.",
    "NOWAREHOUSEFOUND": "No se encontraron almacenes.",
    "PHONE": "TELÉFONO",
    "PRICINGEMAILADDRESS": "DIRECCIÓN DE CORREO ELECTRÓNICO DE PRECIOS",
    "PRICINGTEAMEMAIL": "CORREO ELECTRÓNICO DEL EQUIPO DE PRECIOS",
    "PRODUCT": "Producto",
    "PRODUCT-UC": "PRODUCTO",
    "PROUDCTLINE": "Product Line",
    "PROUDCTLINE-UC": "PRODUCT LINE",
    "REACTIVATE": "REACTIVAR",
    "REACTIVATEUSERMESSAGE": "¿Estás segura de que quieres reactivar a esta usuario?",
    "REMOVEOTHERROLESERRORMESSAGE": "se selecciona el rol. Elimine otros roles antes de guardar.",
    "REPCODE": "CÓDIGO REP",
    "ROLE": "ROL",
    "ROLE-LC": "Rol",
    "ROLES": "Roles",
    "SAVE": "Guardar",
    "SAVE-UC": "GUARDAR",
    "SEARCH": "Buscar",
    "SUCCESSFULLYDELETEUSER": "eliminado con éxito del sistema.",
    "SUCCESSFULLYREACTIVATEUSER": "reactivado con éxito del sistema.",
    "THISBRANCHISALREADYSELECTED": "Esta rama ya está seleccionada",
    "USERROLE": "ROL DEL USUARIO",
    "WAREHOUSE": "Almacén",
    "WAREHOUSE-UC": "ALMACÉN",
    "WAREHOUSES": "ALMACENES",
    "YES": "Sí"
  },
  "ALL": "Todo",
  "All products are added from selected invoice or selected invoice number is wrong": "Todos los productos se agregan desde la factura seleccionada o el número de factura seleccionado es incorrecto.",
  "Are you sure you want to delete this Contact": "¿Estás seguro de que deseas eliminar este contacto?",
  "BASKET": {
    "BASKET": "Cesta",
    "BASKET-UC": "Cesta",
    "BASKETUPDATED": "Cesta actualizada",
    "CHECKOUT": "Revisar",
    "CREDITHOLDWARNING": "Ups! Actualmente no está activado el sistema de pedidos online en tu cuenta. Contacta con tu comercial.",
    "EMPTY": "Vacío",
    "EMPTYBASKET": "Cesta vacía",
    "EMPTYBASKETMESSAGE": "Esto vaciará su cesta. ¿Está seguro?",
    "EMPTYCART": "Su cesta está vacía",
    "EMPTYCARTMESSAGE": "parece que aún no has añadido nada a tu cesta",
    "NEW": "Nuevo",
    "REMOVE": "Eliminar",
    "REMOVEPRODUCT": "Eliminar producto",
    "REMOVEPRODUCTMESSAGE": "Esto eliminará el producto de la cesta. ¿Está seguro?",
    "SUBMITFORAPPROVAL": "Solicitud de aprobacion",
    "SUBTOTAL": "Subtotal",
    "TAX": "IVA",
    "TOTAL": "Total",
    "UNABLETOUPDATEBAKET": "No se puede actualizar la cesta"
  },
  "CHECKOUT": {
    "APPLYSPECIALINSTRUCTIONS": "Aplicar instrucciones especiales a otro almacén.",
    "APPROVERSEMAIL": "Approver's Email",
    "CANCELORDER": "CANCEL ORDER",
    "CANCELORDER-LC": "Cancel Order",
    "CANCELORDERMESSAGE": "This will cancel your order. Are you sure?",
    "CHANGEREQUIRED": "Change Required",
    "CREATOR": "Creator",
    "CUSTOMERDETAILS": "Datos del cliente",
    "CUSTOMEREMAIL": "Correo electrónico del cliente",
    "CUSTOMERREFERENCE": "Referencia cliente",
    "DELIVERYADDRESS": "Dirección de entrega",
    "DELIVERYDATE": "Fecha de envío",
    "DELIVERYDETAILS": "Detalles de entrega",
    "DELIVERYDETAILSNOTAVAILABLE": "Delivery address or delivery date information is unavailable. Please contact IT help.",
    "EMAILADDRESS": "Dirección email",
    "ENTERMANAGERSEMAIL": "Enter manager's email",
    "EXITCHECKOUT": "Exit Checkout",
    "EXITCHECKOUTMESSAGE": "Are you sure you want to exit the checkout process?",
    "EXPIRYDATE": "Expiry Date",
    "FOR": "for",
    "FORNEXTAVAILABLEDELIVERY": "for next available delivery",
    "INVALIDCUSTOMERREFERENCE": "Referencia de cliente no válida",
    "INVALIDEXPIRYDATE": "Expiry date is invalid",
    "INVALIDSPECIALINSTRUCTION": "Invalid Special Instruction",
    "MARGIN": "Margin",
    "MAXIMUMLIMITINREFERENCE": "La referencia del cliente solo puede tener un máximo de 15 caracteres",
    "MAXIMUMLIMITINSPECIALINSTRUCTION": "Las Instrucciones Especiales sólo pueden tener un máximo de 255 caracteres.",
    "ORDERBY": "Order by",
    "ORDERCONFIRMATION": "ORDER CONFIRMATION",
    "ORDERCONFIRMATIONHASBEENSENTTO": "Order confirmation has been sent to",
    "ORDERDATE": "Order Date",
    "ORDERDETAILS": "Detalles del pedido",
    "PRODUCTSFROM": "Products from",
    "SENDEMAILCONFIRMATION": "Enviar confirmación por correo electrónico",
    "SPECIALINSTRUCTIONS": "Instrucciones especiales",
    "SUCCESSFULLYSUBMITTED": "Successfully Submitted",
    "TEXTAREANOTE": "enter comments on what changes are required",
    "THANKYOUFORORDERING": "THANK YOU FOR ORDERING ON BEHALF OF",
    "THISFIELDCANNOTBEBLANK": "Este campo no puede estar vacío",
    "USERDETAILS": "Detalles de usuario",
    "USERNAME": "Nombre de usuario",
    "YOUMAYLOSEYOURDATA": "You may lose the data that you recently entered"
  },
  "COMPLAINT": {
    "REQUESTTOCOLLECTGOODS": "SOLICITUD DE RECOGER MERCANCÍAS"
  },
  "COMPLAINTS": {
    "ACCOUNT": "Cuenta",
    "ADDANOTHERPRODUCT": "Añadir otro producto",
    "ADDCOMPLAINT": "Agregar queja",
    "ADDCOMPLAINTBYTAPPINGONTHEADDCOMPLAINTBUTTON": "agregue una queja tocando el botón Agregar queja",
    "ADDNEWCOMPLAINT": "Agregar nueva queja",
    "ANDTOTALSIZEIS": "y el tamaño total es",
    "ATTACHMENT": "ADJUNTO",
    "AUTHORIZEDBY": "Autorizado por",
    "BATCHNO": "LOTE N º.",
    "BESTBEFORE": "CONSÚMASE ANTES DE",
    "BIDFOODCOPY": "Copia de oferta",
    "BRANCH": "Rama",
    "BRANCHBUYER": "COMPRADOR DE SUCURSAL",
    "CANCELLATION-CANCELACTION": "Cancelar",
    "CANCELLATION-COMMENTCANNOTBEBLANKANDNOTMORETHAN250CHARACTERS": "El comentario no puede quedar en blanco y debe tener menos de 250 caracteres.",
    "CANCELLATION-COMMENTSLABEL": "Comentarios",
    "CANCELLATION-FORMLABEL": "Cancelar queja",
    "CANCELLATION-PANELTEXTCOMMENTLABEL": "Comentario:",
    "CANCELLATION-PANELTEXTLABEL": "Motivo de cancelación",
    "CANCELLATION-SAVEACTION": "Confirmar",
    "CANCELLATION-SELECTREASONSTOCANCELCOMPLAINTLABEL": "Seleccione el motivo para cancelar una queja",
    "CANCELLATION-WARNINGMESSAGELABEL": "Esta acción cancelará la queja y no podrá volver a abrirse.",
    "CATEGORYCANNOTBENULL": "La categoría no puede estar en blanco",
    "CATEGORYMANAGER": "GERENTE DE CATEGORIA",
    "COMPLAINTID": "ID de queja",
    "COMPLAINTINFORMATION": "INFORMACIÓN DE QUEJA",
    "COMPLAINTLIST": "Lista de quejas",
    "COMPLAINTNOTSAVEDPLEASECHECKYOURDATA": "Queja no guardada. Por favor revisa tus datos y vuelve a intentarlo.",
    "COMPLAINTS-ACCOUNT": "CUENTA",
    "COMPLAINTS-APPLY": "Aplicar",
    "COMPLAINTS-AT": "en",
    "COMPLAINTS-CANCEL": "Cancelar",
    "COMPLAINTS-CATEGORY": "CATEGORÍA",
    "COMPLAINTS-CHOOSEASTATUS": "Elija un estado",
    "COMPLAINTS-COMPLAINTDATE": "FECHA DE QUEJA",
    "COMPLAINTS-COMPLAINTDUE": "QUEJA DEBIDA",
    "COMPLAINTS-CONTACT": "CONTACTO",
    "COMPLAINTS-CONTACTEMAIL": "EMAIL DE CONTACTO",
    "COMPLAINTS-CREATED": "CREADA",
    "COMPLAINTS-CUSTOMER": "CLIENTE",
    "COMPLAINTS-ENTERAVALIDDATE": "Introduzca una fecha válida.",
    "COMPLAINTS-EXPORT": "Exportar",
    "COMPLAINTS-FILTER-FROM": "DE",
    "COMPLAINTS-FILTER-OWNER": "Propietario",
    "COMPLAINTS-FILTER-STATUS": "Estado",
    "COMPLAINTS-FILTER-TO": "Para",
    "COMPLAINTS-ID": "IDENTIFICACIÓN",
    "COMPLAINTS-INFORMCUSTOMER": "INFORMAR AL CLIENTE",
    "COMPLAINTS-INVOICE": "FACTURA",
    "COMPLAINTS-LOAD-MORE": "Carga más",
    "COMPLAINTS-LOADMORE": "Carga más",
    "COMPLAINTS-LOCAL": "Local",
    "COMPLAINTS-NATIONAL": "Nacional",
    "COMPLAINTS-NOCOMPLAINTSEXPORTED": "No se exportaron quejas",
    "COMPLAINTS-NOCOMPLAINTSFOUND": "No se encontraron quejas",
    "COMPLAINTS-ORDERDATE": "FECHA DE PEDIDO",
    "COMPLAINTS-OWNER": "PROPIETARIO",
    "COMPLAINTS-SEARCH": "Buscar",
    "COMPLAINTS-STATUS": "ESTADO",
    "COMPLAINTS-TITLE": "Quejas",
    "COMPLAINTS-TYPE": "TIPO",
    "COMPLAINTS-UPDATED": "ACTUALIZADO",
    "COMPLAINTSAVEDANDRELEVANTTASKSWILLSOONBEGENERATEDIFCONFIGUREDACCORDINGLY": "La queja se guardará y pronto se generarán tareas relevantes si se configura en consecuencia",
    "CONTACT": "Contacto",
    "CONTACTCANNOTBENULL": "El contacto no puede estar en blanco",
    "CORRECTIVEACTION": "Acción correctiva",
    "CORRECTIVEACTIONCANNOTBEBLANK": "La acción correctiva no puede estar en blanco",
    "CREATENEWCOMPLAINT": "Crear nueva queja",
    "CREDIT": "Crédito",
    "CUSTOMER": "Cliente",
    "CUSTOMERCOPY": "Copia del cliente",
    "CUSTOMERNAME": "Nombre del cliente",
    "CUSTOMERRESOLUTIONSNOTES": "Notas de resoluciones de clientes",
    "CUSTOMERRESOLUTIONSNOTESCANNOTBEBLANK": "Las notas de resoluciones de clientes no pueden estar en blanco",
    "CUSTOMERSIGNATURE": "Firma del cliente",
    "DESCRIPTION": "Descripción",
    "DESCRIPTIONCANNOTBEBLANK": "La descripción no puede estar en blanco",
    "DETAILS-ATTACHMENT": "ADJUNTO",
    "DETAILS-BATCHNO": "LOTE N º",
    "DETAILS-BESTBEFORE": "CONSÚMASE ANTES DE",
    "DETAILS-BRANCHBUYER": "COMPRADOR DE SUCURSAL",
    "DETAILS-CATEGORY": "CATEGORÍA",
    "DETAILS-CATEGORYMANAGER": "GERENTE DE CATEGORIA",
    "DETAILS-COMPLAINTDATE": "FECHA DE QUEJA",
    "DETAILS-COMPLAINTDUE": "QUEJA DEBIDA",
    "DETAILS-COMPLAINTID": "ID DE QUEJA",
    "DETAILS-CONTACT": "CONTACTO",
    "DETAILS-CONTACTEMAILS": "CORREOS ELECTRÓNICOS DE CONTACTO",
    "DETAILS-CREATOR": "CREADOR",
    "DETAILS-DESCRIPTION": "DESCRIPCIÓN",
    "DETAILS-EXCLBRAND": "EXCL. MARCA",
    "DETAILS-INFORMCUSTOMER": "INFORMAR AL CLIENTE",
    "DETAILS-INVOICENO": "FACTURA NO",
    "DETAILS-LASTUPDATED": "ÚLTIMA ACTUALIZACIÓN",
    "DETAILS-MNFDATE": "Fuerza Multinacional. FECHA",
    "DETAILS-NO": "No",
    "DETAILS-ORDERDATE": "FECHA DE ORDEN",
    "DETAILS-OWNER": "DUEÑO",
    "DETAILS-PICKUPPRODUCT": "PRODUCTO PARA RECOGER",
    "DETAILS-PRODUCT": "PRODUCTO",
    "DETAILS-RETURNQTY": "CANTIDAD DE DEVOLUCIÓN",
    "DETAILS-SUBJECT": "SUJETO",
    "DETAILS-SUPPLIER": "PROVEEDOR",
    "DETAILS-TYPE": "TIPO",
    "DETAILS-UOM": "UDM",
    "DETAILS-YES": "Sí",
    "DRIVERNAME": "Nombre del conductor",
    "DRIVERSIGNATURE": "Firma del conductor",
    "EDITTHECOMPLAINTANDADDPRODUCTFORPICKUP": "Edite la queja y agregue el producto para su recogida.",
    "ERROROCCURRED": "Se produjo un error",
    "ERROROCCURREDWHILEFETCHINGRESOLUTIONDETAILSPLEASECONTACTYOURADMIN": "Se produjo un error al obtener los detalles de la resolución; comuníquese con su administrador.",
    "EXCLBRAND": "EXCL. MARCA",
    "FAX": "Fax",
    "FIELDSDATAEXCEEDEDTHECHARACTERLIMITOF": "Los datos de los campos excedieron el límite de caracteres de",
    "FILEFORMAT": "Formato de archivo",
    "INVALIDINVOICESEARCHWITHTHREECHARACTERS": "Factura no válida. Busca con 3 caracteres.",
    "INVESTIGATION": "Investigación",
    "INVESTIGATIONCANNOTBEBLANK": "La investigación no puede estar en blanco",
    "INVOICE": "Factura",
    "INVOICED": "Facturado",
    "INVOICEDATE": "Fecha de la factura",
    "ISNOTSUPPORTED": "no es apoyado",
    "MANUFACTURED": "FABRICADO",
    "MAXIMUM": "Máximo",
    "MAXIMUMNUMBEROF": "Número máximo de",
    "MAXLENGTH150": "La longitud máxima es de 150 caracteres.",
    "MB": "MB",
    "MUSTENTERBATCHNOORBESTBEFORE": "Debe ingresar el número de lote o el mejor antes",
    "MUSTENTERDESCRIPTION": "Debe ingresar la descripción",
    "MUSTENTERPICKUPPRODUCT": "Debe ingresar el producto para recoger",
    "MUSTENTERPRODUCTWITHATLEASTTHREECHARACTERS": "Debe ingresar el producto con al menos 3 caracteres.",
    "MUSTENTERQUANTITYANDSHOULDBENUMBER": "Debe ingresar la cantidad y debe ser el número.",
    "MUSTENTERSUBJECT": "Debe ingresar el asunto",
    "MUSTENTERUOM": "Debe ingresar uom",
    "NO": "No",
    "NOPRODUCTSFORPICKUP": "No hay productos para recoger",
    "NOTES": "NOTAS",
    "OFTOTALSIZE": "de tamaño total",
    "OPENTASKS": "tareas abiertas",
    "PHONE": "Teléfono",
    "PICKUPDATE": "Fecha de recogida",
    "PICKUPNOTE": "Nota de recogida",
    "PICKUPPRODUCT": "PRODUCTO PARA RECOGER",
    "PICKUPSHEET": "Hoja de recogida",
    "PICKUPSHEETNOTESAVED": "Nota de la hoja de recogida guardada",
    "PICKUPSHEETNOTESAVEDFAILED": "Error al guardar la nota de la hoja de recogida",
    "PLEASECOMPLETEALLMANDATORYFIELDS": "Por favor complete todos los campos obligatorios",
    "PLEASESELECTANINVOICE": "Por favor seleccione una factura",
    "PREVENTIVEACTION": "Acción preventiva",
    "PREVENTIVEACTIONCANNOTBEBLANK": "La acción preventiva no puede estar en blanco",
    "PRODUCT": "Producto",
    "PRODUCTINFORMATION": "INFORMACIÓN DEL PRODUCTO",
    "PRODUCTNOTESAVED": "Nota del producto guardada",
    "PRODUCTNOTESAVEDFAILED": "Error al guardar la nota del producto",
    "PRODUCTSFORPICKUP": "Productos para recoger",
    "PRODUCTSNOTFORPICKUP": "Productos no para recogida",
    "QUANTITY": "CANTIDAD",
    "REQUESTTOCOLLECTGOODS": "Copia de oferta",
    "RETURNED": "Devuelto",
    "RETURNING": "Regresando",
    "RETURNQTY": "CANTIDAD DE DEVOLUCIÓN",
    "RUNNO": "Ejecutar No",
    "RUNSEQ": "Ejecutar secuencia",
    "SALESREP": "Representante de ventas",
    "SELECTCOMPLAINTCATEGORYANDTYPE": "seleccione la categoría y el tipo de queja",
    "SELECTINVOICE": "seleccionar factura",
    "SUBJECT": "SUJETO",
    "SUBJECTCANNOTBEBLANK": "El asunto no puede estar en blanco",
    "SUPPLIER": "PROVEEDOR",
    "SUPPLIERCREDITREQUIRED": "Crédito de proveedor requerido",
    "TABS-DETAILS": "DETALLES",
    "TABS-PICKUPSHEET": "HOJA DE RECOGIDA",
    "TABS-RESOLUTION": "RESOLUCIÓN",
    "TABS-TASKS": "TAREAS",
    "TASKDETAILS-CLOSE": "CERCA",
    "TASKDETAILS-DETAILS": "DETALLES",
    "TASKDETAILS-MUSTENTERSTATUS": "Debe ingresar estado",
    "TASKDETAILS-OVERVIEW": "DESCRIPCIÓN GENERAL",
    "TASKDETAILS-OWNER": "DUEÑO",
    "TASKDETAILS-STATUS": "ESTADO",
    "TASKDETAILS-SUBJECT": "SUJETO",
    "TASKS-ADDNEWTASK": "Agregar nueva tarea",
    "TASKS-ADDTASK": "Agregar tarea",
    "TASKS-ADDTASKBYTAPPINGONTHEADDTASKBUTTON": "agregue una tarea tocando el botón Agregar tarea",
    "TASKS-ONLY2000CHARACTERSALLOWED": "Sólo se permiten 2.000 caracteres.",
    "TASKS-OWNER": "DUEÑO",
    "TASKS-STATUS": "ESTADO",
    "TASKS-SUBJECTCANNOTBEBLANKANDNOTMORETHAN150CHARACTERS": "El asunto no puede estar en blanco ni tener más de 150 caracteres.",
    "TASKS-TASK": "TAREA",
    "TASKSDETAILS-TITLE": "DETALLES DE LA TAREA",
    "TYPECANNOTBENULL": "El tipo no puede estar en blanco",
    "UOM": "unidad de medida",
    "USER": "Usuario",
    "YES": "Sí"
  },
  "COMPLAINTTASKSTATUS-CLOSED": "Hecho",
  "COMPLAINTTASKSTATUS-INPROGRESS": "En curso",
  "COMPLAINTTASKSTATUS-NEW": "Hacer",
  "CUSTOMER-CONTACTS": {
    "ALTERNATIVEPHONE": "Telefono alternativo",
    "ANDUPDATEDBY": "y actualizado por",
    "CANCEL": "CANCELAR",
    "CHOOSEALANGUAGE": "Elige un idioma",
    "CHOOSEAPOSITION": "Elige una posición",
    "CHOOSEARESPONSIBILITY": "Elige una responsabilidad",
    "CONTACTCREATEDBY": "Contacto creado por",
    "CONTACTDELETED": "Contacto eliminado.",
    "CONTACTNOTDELETED": "Contacto no eliminado.",
    "CONTACTNOTSAVE": "Contacto no guardado.",
    "CONTACTSAVED": "Contacto guardado.",
    "CUSTOMERSEARCH": "Buscar y vincular cuenta de cliente",
    "DELETE": "BORRAR",
    "EMAILADDRESS": "Correo electrónico",
    "ENTEREMAILADDRESS": "Introduzca una dirección de mail válida",
    "FIRSTNAME": "Nombre de pila",
    "FIRSTNAMECANNOTBEBLANK": "El nombre no puede estar en blanco",
    "INVALIDEMAILADDRESS": "Dirección de correo electrónico no válida",
    "INVALIDPHONENUMBER": "Número de teléfono no válido",
    "LANGUAGE": "Idioma",
    "LASTNAME": "Apellido",
    "LASTNAMECANNOTBEBLANK": "El apellido no puede estar en blanco",
    "LINKACCOUNTS": "Cuentas de enlace",
    "LINKEDACCOUNTS": "Cuentas vinculadas",
    "LINKEDBY": "Vinculado por",
    "LINKEDCUSTOMERACCOUTNSEARCHLENGTH": "Se requieren un mínimo de 3 caracteres.",
    "LOSECHANGEMESSAGE": "No ha guardado su trabajo actual y perderá los cambios. Desea continuar?",
    "MAXLENGTH4000": "La longitud máxima para este campo es de 4000 caracteres.",
    "MUSTENTERPHONENUMBEROREMAIL": "Debe ingresar un número de teléfono o correo electrónico",
    "NO": "NO",
    "NORESULTSSEARCH": "No hay resultados.",
    "POSITION": "Posición",
    "POSITIONCANNOTBEBLANK": "La posición no puede estar en blanco",
    "PREFERREDPHONE": "Teléfono Preferido",
    "PRIMARYACCOUNT": "Cuenta principal",
    "REMARKSOPTIONAL": "Observaciones",
    "RESPONSIBILITIES": "Responsabilidades",
    "SAVE": "AHORRAR",
    "TITLE": "Título",
    "UNLINKFROMPRIMARYACCOUNT": "Puede desvincular este contacto del contacto principal",
    "YES": "SÍ"
  },
  "CUSTOMER-FILTER": {
    "APPLY": "Aplicar",
    "CANCEL": "Cancelar",
    "CHOOSEACUSTOMER": "Elige un cliente",
    "CHOOSEATYPE": "Elige un tipo",
    "CHOOSERUNNUMBER": "Elija un número de ejecución",
    "CHOOSESALESGROUP": "Elige un grupo",
    "CUSTOMERTYPE": "TIPO DE CLIENTE",
    "EVENTTYPE": "TIPO DE EVENTO",
    "INDUSTRYGROUP": "GRUPO INDUSTRIAL",
    "INDUSTRYTYPE": "Tipo de industria",
    "RUNNUMBER": "NÚMERO DE EJECUCIÓN",
    "SALESGROUP": "GRUPO DE VENTAS"
  },
  "CUSTOMER-OVERVIEW": {
    "8WEEKSSALES": "Ventas de 8 semanas",
    "ACCOUNTTERM": "PLAZO DE CUENTA",
    "ACTIONS": "COMPORTAMIENTO",
    "ADDNEWCONTACT": "Agregar nueva contacto",
    "ADDNEWCONTACTS": "AGREGAR NUEVA CONTACTO",
    "AVERAGE": "Promedio",
    "BACKORDERALLOWED": "PEDIDO ADELANTADO",
    "BUSINESSIDENTIFIER": "Identificador de negocio",
    "CANCEL": "CANCELAR",
    "COMPLAINTS": "QUEJAS",
    "CONTACTDETAILS": "DETALLES DE CONTACTO",
    "CONTACTS": "CONTACTOS",
    "CONTACTS-LC": "Contactos",
    "CONTACTUNSUBSCRIBEDTEXT": "Cancelado la suscripción para marketing de",
    "CREDITHOLD": "RETENCIÓN DE CRÉDITO",
    "CREDITLIMIT": "LÍMITE DE CRÉDITO",
    "CREDITRATING": "CALIFICACIÓN DE CRÉDITO",
    "CREDITSPENDTODATE": "CRÉDITO GASTAR A FECHA",
    "CUSTOMERGROUP": "GRUPO DE CLIENTES",
    "CUSTOMERINFORMATION": "INFORMACION DEL CLIENTE",
    "DELIVERYADDRESS": "DIRECCIÓN DE ENTREGA",
    "DELIVERYINDEMNITY": "ENTREGA INDEMNIZACIÓN",
    "DELIVERYSCHEDULE": "CALENDARIO DE ENTREGAS",
    "EDIT": "EDITAR",
    "EDITCOMPLAINT": "Editar queja",
    "EDITCONTACT": "Editar contacto",
    "EMAIL": "Email",
    "EMAILADDRESS": "DIRECCIÓN DE CORREO ELECTRÓNICO",
    "ENTERTOTALPOTENTIAL": "Ingrese el potencial total",
    "FAXNUMBER": "NÚMERO DE FAX",
    "GETDIRECTIONS": "OBTENER LAS DIRECCIONES",
    "INDUSTRYGROUP": "INDUSTRY GROUP",
    "INFORMATION-NA": "Información N/A",
    "LASTLOGIN": "ÚLTIMO ACCESO",
    "LATESTEVENTS": "ÚLTIMOS EVENTOS",
    "LOGEVENTS": "Registrar evento",
    "LOGINID": "ACCESO",
    "MARKETING": "Marketing",
    "MARKETINGCONTACT": "Enviar correos electrónicos de marketing a este contacto",
    "MARKETINGSETTINGSCHANGESARENOTEDITABLEFORTHISCONTACT": "Los cambios en la configuración de marketing no son editables para este contacto.",
    "MEETWITH": "reunido con",
    "MEMBERSINCE": "MIEMBRO DESDE",
    "MOREADDRESSES": "Ver otras direcciones de entrega",
    "NAME": "NOMBRE",
    "NATIONALACCOUNT": "CUENTA NACIONAL",
    "NEVERLOGGEDIN": "Nunca ingresé",
    "NEWCOMPLAINT": "Nueva denuncia",
    "NEWQUOTE": "Nueva cotización",
    "NO": "No",
    "NOCUSTOMERCONTACTS": "No hay contactos de clientes",
    "NOLATESTEVENTS": "No hay eventos recientes",
    "NOSALESINFORMATIONFOUNDFORTHISCUSTOMER": "No se encontró información de ventas para este cliente",
    "NOTEFORMARKETINGCONTACT": "",
    "NOTLINKED": "No enlazado",
    "ON": "en",
    "ONLINEUSERS": "Usuarios en línea",
    "ORDERCUTOFFTIME": "TIEMPO DE CORTE DE PEDIDO",
    "OTHERBUSINESSES": "OTRAS CUENTAS",
    "OUTSTANDINGBALANCE": "SALDO PENDIENTE",
    "OVERDUEBALANCE": "SALDO VENCIDO",
    "OVERVIEW": "VISIÓN GENERAL",
    "PHONE": "TELÉFONO",
    "PHONENUMBER": "NÚMERO DE TELÉFONO",
    "PHYSICALADDRESS": "DIRECCIÓN FÍSICA",
    "PLANNER": "PLANIFICADOR",
    "PLEASEENETEREMAILADDRESSTOENABLEMARKETINGFORTHISCONTACT": "Ingrese la dirección de correo electrónico para habilitar el marketing para este contacto.",
    "POSITION": "POSICIÓN",
    "PREFERREDONLY": "SOLO PREFERIDO",
    "PRICINGGROUP": "GRUPO DE PRECIOS",
    "PRIMARYCONTACT": "Contacto primario",
    "PRIMARYLINKED": "Contacto principal",
    "REBATE": "REEMBOLSO",
    "REMARKS": "OBSERVACIONES",
    "REPCODE": "CÓDIGO REP",
    "RUNNUMBER/RUNSEQUENCE": "NÚMERO DE EJECUCIÓN / SECUENCIA DE EJECUCIÓN",
    "SALES": "VENTAS",
    "SALESGROUP": "GRUPO DE VENTAS",
    "SALESREP": "REPRESENTANTE DE VENTAS",
    "SAVE": "GUARDAR",
    "SECONDARYCONTACT": "contacto secundario",
    "SECONDARYLINKED": "Contacto secundario",
    "SEEDETAILS": "VER DETALLES",
    "SENDPASSWORD": "ENVIAR CONTRASEÑA",
    "SHADOWLOGIN": "Iniciar sesión como cliente",
    "SOURCE": "FUENTE",
    "SUBSCRIBEDFORMARKETINGFROM": "Suscrito para marketing desde",
    "TAXAPPLICABLE": "TAX APPLICABLE",
    "TOTALPOTENTIALCANNOTBEBLANK": "El potencial total no puede estar en blanco",
    "UNSUBSCRIBEDFORMARKETINGFROM": "Cancelación de suscripción para marketing de",
    "USERNAME": "NOMBRE DE USUARIO",
    "VIEWCONTACT": "Detalles de contacto",
    "YES": "Sí"
  },
  "Cancel": "Cancelar",
  "Cancel Complaint": "cancelar queja",
  "Cancelled": "Cancelado",
  "Cannot add more than 12 products": "¡No se pueden agregar más de 12 productos!",
  "Changing the invoice number will result in the removal of associated products. Are you sure you want to proceed? This action cannot be undone": "Cambiar el número de factura resultará en la eliminación de los productos asociados. ¿Estas seguro que deseas continuar? Esta acción no se puede deshacer.",
  "Close": "Cerca",
  "Close Complaint": "Cerrar queja",
  "Closed": "Cerrado",
  "Complaint Task deleted": "Tarea de queja eliminada",
  "Complaint Task saved": "Tarea de queja guardada",
  "Complaint Task updated": "Tarea de quejas actualizada",
  "Complaint must have at least 1 product": "La queja debe tener al menos 1 producto.",
  "Complaint saved": "Queja guardada",
  "DASHBOARD": {
    "ADDRESS": "DIRECCIÓN",
    "AGE": "EDAD",
    "AGO": "ago",
    "ALLCUSTOMERHAVEEVENTS": "¡Bien hecho! Todos tus clientes tienen eventos",
    "ALLCUSTOMERHAVESALES": "¡Hurra! Todos los clientes tienen ventas",
    "ALLNEWCUSTOMERHAVESALES": "Hooray! All customers created in last",
    "ALLQUOTESAPPROVED": "Todas las cotizaciones son aceptadas por los clientes.",
    "CONTACT": "CONTACTO",
    "CPG": "PRICING GROUP",
    "CPG-LC": "Pricing Group",
    "CREATOR": "CREADOR",
    "CRG": "CUSTOMER GROUP",
    "CRG-LC": "Customer Group",
    "CUSTOMER": "CLIENTE",
    "CUSTOMERSBYPOTENTIAL": "CUSTOMERS BY POTENTIAL",
    "CUSTOMERSBYPOTENTIALREPORT": "CustomersByPotentialReport",
    "CUSTOMERSWITHNOEVENTS": "Clientes sin eventos",
    "CUSTOMERSWITHNOEVENTS-UC": "CLIENTES SIN EVENTOS",
    "CUSTOMERSWITHNOSALES": "CLIENTES SIN VENTAS",
    "CUSTOMERSWITHNOSALESREPORT": "CustomersWithNoSalesReport",
    "CUSTOMERSWITHSALESDROPPINGREPORT": "CustomersWithSalesDroppingReport",
    "CUSTOMERWITHSALESDROPPING": "CLIENTES CON CAÍDA DE VENTAS",
    "DASHBOARD": "Panel de control",
    "DATE": "FECHA",
    "DAYS": "días",
    "DROP": "PERDIDO",
    "EVENTTYPE": "Event Type",
    "EXPORT": "Exportación",
    "HAVESALES": "have sales",
    "INFORMATION-NA": "N/A",
    "LASTEVENT": "LAST EVENT",
    "LASTMONTHSALES": "Ventas último mes",
    "LEADS": "LEADS",
    "MARGIN": "MARGEN",
    "NEWCUSTOMERSWITHNOSALES": "NEW CUSTOMERS WITH NO SALES",
    "NEWCUSTOMERSWITHNOSALESREPORT": "NewCustomersWithNoSalesReport",
    "NO": "No",
    "NOCUSTOMERS": "Sin clientes",
    "NOCUSTOMERSFOUND": "No customers found for this search criteria",
    "NOCUSTOMERSWITHSALESDROP": "¡Wow! no hay clientes con ventas cayendo",
    "NOEVENTSREPORT": "NoEventsReport",
    "NOLEADS": "You have no active leads",
    "NOOVERDUEAPPOINTMENT": "Lo estás haciendo genial. No hay citas vencidas",
    "NOQUOTESINDRAFT": "There are no quotes in draft state",
    "NOUPCOMINGAPPOINTMENT": "No tienes citas próximas programadas",
    "ONEDAY": "day",
    "PERIOD": "PERIODO",
    "PERIOD-LC": "Periodo",
    "PHONE": "Phone",
    "POTENTIAL-8WEEKS": "POTENCIAL (8W)",
    "POTENTIALNOTSET": "Potential is not set for your customers",
    "QUOTESINDRAFT": "QUOTES IN DRAFT",
    "QUOTESPENDINGCUSTOMERAPPROVAL": "COTIZACIONES PENDIENTES DE APROBACIÓN DEL CLIENTE",
    "QUOTESREPORT": "QuotesReport",
    "REPCODE": "CÓDIGO RESPONSABLE",
    "REPORT": "Informe",
    "SALES-8WEEKS": "VENTAS (8W)",
    "SALESDASHBOARD": "Panel de control de ventas",
    "STATUS": "ESTADO",
    "SUBTOTAL": "SUBTOTAL",
    "TODAY": "Today",
    "USERS": "USERS",
    "USERS-LC": "Users",
    "VALUE": "VALUE",
    "VS": "vs"
  },
  "DATASERVICE": {
    "CUSTOMERCALL": "Llamada de cliente",
    "EMAIL-LC": "Correo electrónico",
    "INBOUNDCALL": "Llamada entrante",
    "MESSAGING": "Mensajería",
    "OTHER": "Otro",
    "OUTBOUNDCALL": "Llamada saliente",
    "REFERRAL": "Remisión",
    "SOCIALMEDIA": "Medios de comunicación social",
    "SPECIALEVENT": "Evento Especial",
    "VISIT": "Visita",
    "WORDOFMOUTH": "Boca a boca"
  },
  "Delete": "Borrar",
  "Duplicate email addresses": "Direcciones de correo electrónico duplicadas.",
  "EMAIL-MODAL": {
    "CANCEL": "Cancelar",
    "DESCRIPTION": "DESCRIPCIÓN",
    "DESCRIPTIONCANNOTBEBLANK": "La descripción no puede estar en blanco",
    "DUPLICATEEMAILADDRESS": "Has introducido una dirección de correo electrónico duplicada",
    "EMAILSENT": "Email enviado.",
    "EVENTEMAIL": "Correo electrónico del evento",
    "FROM": "DE",
    "HI": "Hola",
    "INVALIDEMAILADDRESS": "Dirección de correo electrónico no válida",
    "LOSECHANGEMESSAGE": "No ha guardado su trabajo actual y perderá los cambios. Desea continuar?",
    "MAXIMUMEMAILLIMIT": "El número máximo de direcciones de correo electrónico permitidas es",
    "MAXLENGTH170": "La longitud máxima es de 170 caracteres.",
    "MAXSIZEOFATTACHMENTFORANEMAILIS": "Maximum size of attachments for an email is",
    "NO": "No",
    "NOPDFFOUNDINMYBIDFOOD": "No se encontró ningún pdf en Mybidfood",
    "PLEASECOMPLETEALLTHEMANDATORYFIELDS": "Por favor complete todos los campos obligatorios.",
    "REGARDS": "Saludos",
    "SEND": "Enviar",
    "SORRYANERRORHASOCCURRED": "Lo sentimos, se ha producido un error al descargar el pdf.",
    "SUBJECT": "ASUNTO",
    "SUBJECTCANNOTBEBLANK": "El asunto no puede estar en blanco",
    "THISEMAILWILLBETRACKED": "Este correo electrónico será rastreado ",
    "THISFIELDCANNOTBEBLANK": "Este campo no puede estar en blanco",
    "TO": "A",
    "UNKNOWNERROR": "An unknown error has occurred",
    "YES": "Sí"
  },
  "EMAIL-PREVIEW": {
    "ADDRESS": "Dirección",
    "APARTOF": "una parte de",
    "ATT": "ATT",
    "BIDFOODGROUP": "Grupo Bidfood",
    "EFFECTIVEDATE": "FECHA EFECTIVA",
    "EXPIRES": "Expira",
    "EXPIRES-UC": "EXPIRA",
    "FAXNO": "Fax No",
    "PHONE": "Teléfono",
    "PRICE": "PRECIO",
    "PRICEFORCPG": "PRECIO POR CPG",
    "PRODUCT": "PRODUCTO",
    "QTY": "CANTIDAD",
    "QUOTEFOR": "COTIZACIÓN PARA",
    "QUOTEID": "ID DE COTIZACIÓN",
    "SALESREP": "REPRESENTANTE DE VENTAS",
    "SUBTOTAL": "Subtotal",
    "TAX": "Impuesto",
    "TOTAL": "Total",
    "TOTAL-UC": "TOTAL",
    "UOM": "UDM",
    "YES": "Sí"
  },
  "ERP": {
    "ERPFAILED": "Algo salió mal con la API de administración de contactos en ERP"
  },
  "EVENTS-MODAL": {
    "ACCOUNT": "CUENTA",
    "ACCOUNT-LC": "Cuenta",
    "ACCOUNTCANNOTBEBLANK": "El cuenta no puede estar en blanco",
    "ATTACHMENTS": "ARCHIVOS ADJUNTOS",
    "CANCEL": "Cancelar",
    "CC": "CC",
    "CLOSE": "Cerrar",
    "CLOSINGAPPOINTMENTPOPUPMESSAGE": "Do you also want to close an appointment for this customer?",
    "CONTACT": "CONTACTO",
    "CONTACTCANNOTBEBLANK": "El contacto no puede estar en blanco",
    "DATE": "FECHA",
    "DATECANNOTBEBLANK": "La fecha no puede estar en blanco",
    "DESCRIPTION": "DESCRIPCIÓN",
    "DESCRIPTIONCANNOTBEBLANK": "La descripción no puede estar en blanco",
    "EDIT": "Editar",
    "EVENTDETAILS": "Detalles del evento",
    "EVENTSAVED": "Evento guardado.",
    "FILEFORMAT": "Formato de fichero",
    "FROM": "DE",
    "ISNOTSUPPORTED": "no es soportado",
    "LEADID": "DIRIGIR ID",
    "LOSECHANGEMESSAGE": "No ha guardado su trabajo actual y perderá los cambios. Desea continuar?",
    "MAXLENGTH150": "La longitud máxima es de 150 caracteres.",
    "MAXSIZEOFATTACHMENTFORANEVENTIS": "Maximum size of attachments for an event is",
    "NO": "No",
    "PLEASECOMPLETEALLTHEMANDATORYFIELDS": "Por favor complete todos los campos obligatorios.",
    "SAVE": "Guardar",
    "SENDASEMAIL": "Enviar correo electrónico",
    "SENT": "Enviado",
    "SUBJECT": "ASUNTO",
    "SUBJECTCANNOTBEBLANK": "El asunto no puede estar en blanco",
    "SUMMARYTAGS": "Etiquetas de resumen",
    "TO": "A",
    "TYPE": "TIPO",
    "YES": "Sí"
  },
  "EVENTS": {
    "ACCOUNT": "CUENTA",
    "ACCOUNTS": "Cuentas",
    "APPLY": "Aplicar",
    "CANCEL": "Cancelar",
    "CHOOSEADATE": "Elige una fecha",
    "CHOOSEANACCOUNT": "Elige una cuenta",
    "CHOOSEATAG": "Elige una etiqueta",
    "CHOOSEATYPE": "Elige un tipo",
    "CHOOSECUSTOMERGROUP": "Elegir grupo de clientes",
    "CHOOSECUSTOMERPRICING": "Choose pricing group",
    "CLOSE": "Cerrar",
    "CONTACT": "CONTACTO",
    "CONTACTCANNOTBEBLANK": "El contacto no puede estar en blanco",
    "CREATED": "CREATED",
    "CREATEDBY": "CREADO POR",
    "CREATOR": "Creador",
    "CREATOR-UC": "CREADOR",
    "CUSTOMER": "CLIENTE",
    "CUSTOMERGROUP": "GRUPO DE CLIENTES",
    "CUSTOMERGROUP-LS": "Grupo de clientes",
    "DATE": "Fecha",
    "DATE-UC": "FECHA",
    "DATECANNOTBEBLANK": "La fecha no puede estar en blanco",
    "DESCRIPTION": "DESCRIPTION",
    "DESCRIPTIONCANNOTBEBLANK": "La descripción no puede estar en blanco",
    "EVENTDETAILS": "Detalles del evento",
    "EVENTS": "Eventos",
    "EXPORT": "Exportar",
    "EXPORTSUCCESSFUL": "Exportación exitosa",
    "IMPORTTEMPLATE": "Importar Plantilla",
    "INTERACTIONDATE": "INTERACCIÓN",
    "LOCAL": "Local",
    "LOGEVENTS": "Registrar evento",
    "MINTHREECHARACTERS": "Se requieren un mínimo de 3 caracteres para buscar eventos.",
    "NATIONAL": "Nacional",
    "NOEVENTEXPORTED": "No se exportó ningún evento",
    "NOEVENTSFOUND": "No se encontraron eventos.",
    "OVERVIEW": "VISIÓN GENERAL",
    "SAVE": "Guardar",
    "SEARCH": "Buscar",
    "SENDASEMAIL": "Enviar correo electrónico",
    "SUBJECT": "ASUNTO",
    "SUBJECTCANNOTBEBLANK": "El asunto no puede estar en blanco",
    "SUMMARYTAGS": "Etiquetas de resumen",
    "TAGS": "Etiquetas",
    "TAGS-UC": "ETIQUETAS",
    "TASKS": "TAREAS Y RECORDATORIOS",
    "TYPE": "TIPO",
    "TYPECREATOR": "Tipo creador",
    "TYPES": "Tipos",
    "UPDATES": "ACTUALIZACIONES"
  },
  "EVENTTAGS__DAMAGED": "Dañado",
  "EVENTTAGS__Damaged": "Dañado",
  "EVENTTYPES": {
    "EMAIL": "sent an email to",
    "INBOUNDCALL": "received a call from",
    "MESSAGING": "messaging to",
    "OTHER": "interacted with",
    "OUTBOUNDCALL": "made a call to",
    "VISIT": "met with"
  },
  "EVENTTYPES__DETAILEDNAME_EMAIL": "Email",
  "EVENTTYPES__DETAILEDNAME_INBOUND_CALL": "Llamada Entrante",
  "EVENTTYPES__DETAILEDNAME_MESSAGING": "Mensajería",
  "EVENTTYPES__DETAILEDNAME_OTHER": "Otros",
  "EVENTTYPES__DETAILEDNAME_OUTBOUND_CALL": "Llamada Saliente",
  "EVENTTYPES__DETAILEDNAME_SPECIAL_EVENT": "Evento especial",
  "EVENTTYPES__DETAILEDNAME_VISIT": "Visita",
  "Edit": "Editar",
  "Edit Task": "Editar tarea",
  "Email cannot be blank": "El correo electrónico no puede estar en blanco.",
  "Enter Text Here": "Introducir texto aquí...",
  "Escalated": "escalado",
  "Export request submitted successfully.": "Solicitud de exportación enviada correctamente.",
  "FEEDBACK": {
    "CANCEL": "Cancelar",
    "DESCRIPTION": "DESCRIPCIÓN",
    "DESCRIPTIONCANNOTBEBLANK": "La descripción no puede estar en blanco",
    "EMAILSENT": "Email enviado.",
    "ERRORSENDINGFEEDBACK": "Se produjo un error al enviar comentarios, póngase en contacto con el servicio de asistencia de TI",
    "FEEDBACK": "Retroalimentación",
    "FROM": "DE",
    "SEND": "Enviar",
    "SUBJECT": "ASUNTO",
    "SUBJECTCANNOTBEBLANK": "El asunto no puede estar en blanco",
    "TO": "A",
    "TYPE": "TIPO"
  },
  "GENERAL": {
    "A-Z": "A-Z",
    "ADDRESS": "Habla a",
    "ALL": "TODOS",
    "APPLY": "Aplicar",
    "AREYOUSUREYOUWANTTOOVERWRITEEXISTINGATTACHMENTS": "¿Está seguro de que desea sobrescribir los archivos adjuntos existentes?",
    "AT": "en",
    "ATTACHMENTS": " archivos adjuntos",
    "ATTACHMENTSANDTOTALSIZEIS": "archivos adjuntos y el tamaño total es",
    "CANCEL": "Cancelar",
    "CANNOTADDMORETHAN": "No se puede agregar más de ",
    "CHARACTERS": "caracteres",
    "CLOSE": "Cerrar",
    "CONTACTPERSON": "Contacto",
    "DAYS": "days",
    "DEACTIVATE": "Desactivar",
    "DELETE": "ELIMINAR",
    "ENTERAVALIDDATE": "Introduzca una fecha válida",
    "EXPORTREQUESTSUBMITTED": "Solicitud de exportación enviada correctamente",
    "EXPORTSUCCESSFUL": "Exportación exitosa",
    "FROM": "PARA",
    "FROM-LC": "Para",
    "HELP": "Ayuda",
    "IMPORT": "Importar",
    "IMPORTFILEISPROCESSING": "El archivo de importación se está procesando.",
    "IMPORTSUCCESSFUL": "Importación exitosa.",
    "IN": "en",
    "INFORMATION-N/A": "N/A",
    "INFORMATION-NA": "Información N / A",
    "INVALIDFILEFORMAT": "Formato de archivo no válido; elija archivos .csv válidos",
    "LASTCOMMUNICATION": "Ultima comunicación",
    "MAXIMUM": "Maximum",
    "MAXIMUMATTACHMENTSFORIPADLANDSCAPE": "Máximo 3 archivos adjuntos de tamaño total 2MB",
    "MAXIMUMATTACHMENTSFORIPADPORTRAIT": "Máximo 3 de tamaño total 2MB",
    "MAXIMUMFILESIZEIS": "El tamaño máximo de archivo es",
    "MAXIMUMNUMBEROF": "Número máximo de",
    "MAXIMUMNUMBEROFATTACHMENTSIS": "El número máximo de archivos adjuntos es",
    "MAXIMUMVALUEIS": "El valor máximo es",
    "MAXNUMBER1000000000": "El número máximo es 1.000.000.000,00",
    "NA": "N/A",
    "NO": "No",
    "NODATATOEXPORT": "No hay datos para exportar",
    "NORESULTFOUND": "No se han encontrado resultados",
    "OF": "de",
    "OFF": "apagado",
    "OFTOTALSIZE": "of total size",
    "PHONE": "Teléfono",
    "PLEASECOMPLETEALLTHEMANDATORYFIELDS": "Por favor complete todos los campos obligatorios",
    "PLEASESELECT": "POR FAVOR SELECCIONAR",
    "QTY": "CANTIDAD",
    "RESET": "Reiniciar",
    "RESULT": "result",
    "RESULTS": "resultados",
    "SAVE": "Guardar",
    "SEARCH": "Buscar",
    "SEEDETAILS": "Ver Detalles",
    "SEEMORE": "Ver más",
    "SELECTATLEASTONEVALUE": "Seleccione al menos un valor",
    "SHOWING": "Demostración",
    "THISFIELDCANNOTBEBLANK": "Este campo no puede estar vacío",
    "TO": "A",
    "TO-LC": "A",
    "TOTAL-UC": "TOTAL",
    "WAS": "was",
    "YES": "si",
    "YOUAREBACKONLINE": "You are back online",
    "YOUCANENTERAMAXIMUMOF": "Sólo puedes introducir un máximo de",
    "YOUHAVENOINTERNETCONNECTION": "You have no internet connection",
    "YOURINTERNETCONNECTIONISNOTSTABLEREFRESH": "Interrupción de la red. Actualice la página.",
    "YOURINTERNETCONNECTIONISUNSTABLE": "Interrupción de la red. El sistema está intentando recuperar la información."
  },
  "GLOBAL": {
    "GLOBALTIMEOUT": "Su sesión se agotó, haga clic en actualizar",
    "REFRESH": "Refrescar"
  },
  "HEADER": {
    "ALLCOMPLAINTS": "Todas las quejas",
    "ALLCUSTOMERS": "Todos los clientes",
    "ALLLEADS": "Todas prospectos",
    "ALLORDERS": "Todos los pedidos",
    "ALLSCHEDULES": "All Schedules",
    "COMPLAINTS": "Quejas",
    "CUSTOMERS": "Customers",
    "FEEDBACK": "Sugerencias",
    "FLAG-CODE": "cl",
    "IFYOUCHANGELANGUAGE": "Si cambia el idioma, sus datos no guardados podrían perderse. Estás seguro de que desea continuar?",
    "LANGUAGE": "Español-CL",
    "LANGUAGE-BUTTON": "Idioma",
    "LANGUAGE-CODE": "es",
    "LEADS": "Leads",
    "LOGOUT": "Cerrar sesión",
    "MYCOMPLAINTS": "Mis quejas",
    "MYCUSTOMERS": "My Customers",
    "MYLEADS": "My Leads",
    "MYORDERS": "My Orders",
    "MYSCHEDULES": "My Schedules",
    "NO": "No",
    "ORDERS": "Pedidos",
    "SCHEDULES": "Horarios",
    "SEARCH": "Buscar",
    "SELECTLANGUAGE": "Seleccionar idioma",
    "YES": "Sí",
    "YOURCUSTOMERS": "Tus clientes",
    "YOURLEADS": "Tu prospectos"
  },
  "In Progress": "En curso",
  "Information-NA": "Información N/A",
  "Invalid Information!": "¡Información no válida!",
  "Invalid email address": "Dirección de correo electrónico no válida.",
  "LANDING-TOP-TABS": {
    "EVENTS": "EVENTOS",
    "OPPORTUNITIES": "OPORTUNIDADES",
    "OVERVIEW": "DESCRIPCIÓN GENERAL",
    "PRODUCTS": "PRODUCTS",
    "QUOTES": "COTIZACIÓNES",
    "SALES": "VENTAS",
    "TRANSACTIONS": "TRANSACTIONS"
  },
  "LEADS": {
    "ACCOUNTCODE": "CÓDIGO DE CUENTA",
    "ADDRESS": "DIRECCIÓN",
    "ADDRESSDETAILSCANNOTBEBLANK": "El campo de dirección no puede estar en blanco",
    "ADDRESSLINE1": "DIRECCIÓN LÍNEA 1",
    "ADDRESSLINE2": "DIRECCIÓN LÍNEA 2",
    "AGE": "EDAD",
    "AGE-LC": "Edad",
    "ALTERNATIVENUMBER": "TELÉFONO ALTERNATIVO",
    "APPLY": "Aplicar",
    "AREYOUSUREYOUWANTTODELETETHISLEAD": "Seguro que desea eliminar esta prospecto?",
    "BRANCH": "RAMA",
    "BRANCHES": "RAMAS",
    "BRANCHESFIELDCANNOTBEBLANK": "El campo de ramas no puede estar en blanco",
    "BUSINESSNAME": "NOMBRE DEL NEGOCIO",
    "BUSINESSNAMEFIELDCANNOTBEBLANK": "El nombre del negocio no puede estar en blanco",
    "CANCEL": "Cancelar",
    "CHOOSEACONVERTED": "Elige un convertido",
    "CHOOSEANOPTION": "Elige una opcion",
    "CHOOSEASTATUS": "Elige un estado",
    "CITY": "CIUDAD",
    "CITYFIELDCANNOTBEBLANK": "El campo ciudad no puede estar en blanco",
    "CONTACT": "CONTACTO",
    "CONTACTDETAILS": "Detalles de dirección",
    "CONVERT": "Convertir",
    "CREATED-LC": "Created",
    "CREATEDBY": "CREADO POR",
    "CREATEDFROMDATE": "CREADO DESDE",
    "CREATEDFROMDATE-LC": "Creado desde",
    "CREATEDTODATE": "CREADO HASTA",
    "CREATEDTODATE-LC": "Creado hasta",
    "CREATENEWLEAD": "Crear nuevo cliente potencial",
    "CREATOR": "CREADOR",
    "CREATOR-LC": "Creador",
    "CURRENTDISTRIBUTOR": "DISTRIBUIDOR PRIMARIO",
    "CURRENTDISTRIBUTORFIELDCANNOTBEBLANK": "El campo distribuidor actual no puede estar en blanco",
    "CUSTOMER": "CLIENTE",
    "CUSTOMERGROUP": "GRUPO DE CLIENTES",
    "CUSTOMERGROUPFIELDCANNOTBEBLANK": "El campo del grupo de clientes no puede estar en blanco",
    "CUSTOMERNAME": "NOMBRE DEL CLIENTE",
    "CUSTOMERREPORTINGGROUP": "GRUPO DE INFORMES AL CLIENTE",
    "DATE": "FECHA",
    "EDIT": "Editar",
    "EDITLEAD": "Editar Prospecto",
    "EMAILADDRESS": "CORREO ELECTRÓNICO",
    "EMAILADDRESSFIELDCANNOTBEBLANK": "El campo dirección de correo electrónico no puede estar en blanco",
    "ENTERAVALIDDATE": "Ingrese una fecha válida",
    "ENTERLEADOWNER": "Introduzca el dueño principal",
    "EVENTS": "EVENTS",
    "EXPECTEDTRADINGDATE": "FECHA DE NEGOCIACIÓN ESPERADA",
    "EXPORT": "Exportar",
    "FROM": "DE",
    "FROM-LC": "De",
    "IMPORTLEADSTEMPLATE": "Import Leads Template",
    "INCEXCCONVERTED-LC": "Inc./Exc. convertido",
    "INCEXCCONVERTED-UC": "INC./EXC. CONVERTIDO",
    "INDUSTRYGROUP": "INDUSTRY GROUP",
    "INDUSTRYGROUPFIELDCANNOTBEBLANK": "Industry group field cannot be blank",
    "INFORMATION-NA": "Información N/A",
    "INVALIDALTERNATIVENUMBER": "Teléfono alternativo no válido",
    "INVALIDEMAILADDRESS": "Dirección de correo electrónico no válida",
    "INVALIDPHONENUMBER": "Número de teléfono invalido",
    "LEAD SOURCE": "FUENTE DE PROSPECTO",
    "LEADALREADYCONVERTED": "El cliente potencial ya se ha convertido en una cuenta de cliente",
    "LEADALREADYLINKED": "El cliente potencial ya está vinculado a una cuenta de cliente.",
    "LEADBRANCH": "WAREHOUSE",
    "LEADBRANCHFIELDCANNOTBEBLANK": "Warehouse field cannot be blank",
    "LEADCONVERTED": "Cliente potencial convertido con cuenta de cliente:",
    "LEADCONVERTMESSAGE1": "Esta acción moverá todos los eventos y contactos del cliente potencial a la cuenta de cliente seleccionada,",
    "LEADCONVERTMESSAGE2": "El cliente potencial se eliminará de forma permanente. Estás seguro de que quieres continuar?",
    "LEADCREATOR": "CREADOR",
    "LEADHASBEENDELETED": "El plomo ha sido eliminado.",
    "LEADLINKED": "Prospecto vinculada con la cuenta del cliente: ",
    "LEADLINKMESSAGE": "Esta acción moverá todos los eventos y contactos del cliente potencial a la cuenta de cliente seleccionada, El cliente potencial se eliminará permanentemente. Estás seguro de que quieres continuar?",
    "LEADLINKMESSAGE1": "Esta acción moverá todos los eventos y contactos del cliente potencial a la cuenta de cliente seleccionada,",
    "LEADLINKMESSAGE2": "El cliente potencial se eliminará permanentemente. Estás seguro de que quieres continuar?",
    "LEADOWNER": "PROPIETARIO PRINCIPAL",
    "LEADOWNER-LC": "Propietario Principal",
    "LEADOWNERCFIELDCANNOTBEBLANK": "El campo propietario principal no puede estar en blanco",
    "LEADS": "Prospectos",
    "LEADSOURCE": "FUENTE DE PROSPECTO",
    "LEADSOURCEFIELDCANNOTBEBLANK": "El campo fuente de prospecto no puede estar en blanco",
    "LEADUPDATED": "El prospecto ha sido actualizada.",
    "LINK": "Enlazar",
    "LOSECHANGEMESSAGE": "No ha guardado su trabajo actual y perderá los cambios. Desea continuar?",
    "MANYDAYS": "días",
    "MONTHLY": "MENSUAL",
    "MONTHLYSPEND": "GASTOS MENSUALES",
    "MONTHLYSPENDCANNOTBEBLANK": "El campo gasto mensual no puede estar en blanco",
    "NEWLEAD": "Nueva Prospecto",
    "NEWLEADSAVED": "Nueva prospecto guardado",
    "NO": "No",
    "NOLEADEXPORTED": "No se exportó plomo",
    "NOLEADSSFOUNDFORTHISSEARCHCRITARIA": "No se encontraron prospectos para este criterio de búsqueda.",
    "ONEDAY": "día",
    "OWNER": "PROPIETARIO",
    "PHONEFIELDCANNOTBEBLANK": "El campo número de teléfono no puede estar en blanco",
    "PHONENUMBER": "NÚMERO DE TELÉFONO",
    "PLEASECOMPLETEALLTHEMANDATORYFIELDS": "Por favor complete todos los campos obligatorios.",
    "PLEASEENTERVALIDINFORMATION": "Por favor, introduzca información válida.",
    "POSTCODE": "CÓDIGO POSTAL",
    "POSTCODECANNOTBEBLANK": "El campo código postal no puede estar en blanco",
    "SALESGROUP": "GRUPO DE VENTAS",
    "SALESGROUPFIELDCANNOTBEBLANK": "El campo grupo de ventas no puede estar en blanco",
    "SAVE": "Guardar",
    "SEARCHFORCUSTOMER": "BUSCAR CLIENTE PARA ENLACAR CON PLOMO",
    "SEARCHFORCUSTOMERTOCONVERT": "BUSCAR CLIENTE PARA CONVERTIR CON PLOMO",
    "STATUS": "ESTADO",
    "STATUS-LC": "Estado",
    "STATUSHASBEENCHANGED": "El estado de la prospecto ha cambiado.",
    "THISISCONVERTEDLEAD": "Esto es plomo convertido",
    "THISLEADISCONVERTEDTO": "Este cliente potencial se convierte en",
    "THISLEADISLINKEDTO": "Este leas está vinculado a",
    "TO": "A",
    "TO-LC": "A",
    "TOTALPOTENTIAL": "POTENCIAL TOTAL",
    "TOTALPOTENTIALAMOUNT": "CANTIDAD TOTAL POTENCIAL",
    "TRADINGDATE": "COMERCIO DE OBJETIVOS",
    "UNSAVECHANGES": "No has guardado tu trabajo actual. Desea proceder y descartar?",
    "YES": "Sí"
  },
  "LOADMORE": "Carga más",
  "Max 3 email addresses": "Máximo 3 direcciones de correo electrónico.",
  "Maximum size of attachments is": "El tamaño máximo de los archivos adjuntos es",
  "NOTFOUND": {
    "BACKTOHOME": "Página de inicio",
    "ERRORUNAUTHORIZEDEXEPTION": "401 - No autorizado",
    "NOTFOUND": "No encontrado",
    "SORRYANERRORHASOCCURRED": "Lo sentimos, se ha producido un error, no se encontró la página solicitada",
    "SORRYYOUDONTHAVEAUTHORIZATION": "Usted no está autorizado a realizar esta acción."
  },
  "New": "Nuevo",
  "New Task": "Nueva tarea",
  "No such invoice is available": "No hay tal factura disponible",
  "OPPORTUNITIES": {
    "LISTOFALLTHEPRODUCTS": "Lista de todos los productos que el cliente está comprando o no en esta subclase",
    "NEWPURCHASE": "NUEVOS PRODUCTOS COMPRADOS",
    "NEWPURCHASEERROR": "There are no new products purchased",
    "NOPRODUCTSTODISPLAY": "No hay productos para mostrar",
    "OPPORTUNITIES": "Oportunidades",
    "OPPORTUNITIES_UC": "OPORTUNIDADES",
    "PRODUCTSNEVERPURCHASED": "PRODUCTOS NUNCA COMPRADOS",
    "PRODUCTSONSPECIAL": "PRODUCTOS EN ESPECIALES",
    "PRODUCTSONSPECIALERROR": "There are no products on special",
    "SALESDOWN": "VENTAS BAJARON",
    "SALESDOWNERROR": "Amazing! there are no products that have dropped in sales",
    "SALESGAP": "PRODUCTOS POTENCIALES NO CONSUMIDOS",
    "SALESGAPERROR": "Well done! you don't have any products that have sales gaps",
    "SALESSTOPERROR": "Wow! there are no products that have stopped in sales",
    "SALESSTOPPED": "VENTAS DETENIDAS",
    "SALESUP": "VENTAS SUBIERON",
    "SALESUPERROR": "No products have increased in sales",
    "TOOLTIPNEWPURCHASE": "Productos que este cliente ha comprado por primera vez en las últimas 2 semanas.",
    "TOOLTIPPRODUCTSONSPECIAL": "Muestra productos que están en promoción para el cliente.",
    "TOOLTIPSALESDOWN": "Productos para los que este cliente tiene un valor de compra inferior al promedio en las últimas 2 semanas.",
    "TOOLTIPSALESGAP": "Productos con alto valor de compra en el mismo segmento de mercado pero no comprados por este cliente",
    "TOOLTIPSALESSTOPPED": "Productos que este cliente no ha comprado en las últimas 2 semanas.",
    "TOOLTIPSALESUP": "Productos para los que este cliente tiene un valor de compra superior al promedio en las últimas 2 semanas."
  },
  "ORDERS": {
    "BIDIQORDERS": "BidIQ Orders",
    "CREATED": "CREATED",
    "CUST": "Personalizado",
    "CUSTOMER": "CUSTOMER",
    "DATE": "DATE",
    "NOORDERSFOUND": "No se encontraron pedidos para este criterio de búsqueda.",
    "ORDERCREATOR": "ORDER CREATOR",
    "ORDERCREATOR-LC": "Order Creator",
    "ORDERNUMBER": "ORDER NUMBER",
    "ORDERS": "Orders",
    "REFERENCE": "REFERENCE",
    "STATUS": "STATUS",
    "STATUS-LC": "Status",
    "WEB": "Web"
  },
  "Overdue": "Atrasado",
  "PAGINATOR": {
    "FIRST_PAGE": "Primera página",
    "ITEMS_PER_PAGE": "Resultados por página:",
    "LAST_PAGE": "Última página",
    "NEXT_PAGE": "Siguiente página",
    "PREVIOUS_PAGE": "Pagina anterior"
  },
  "PLANNER": {
    "ADDAPPOINTMENT": "Agregar cita",
    "ADDAPPOINTMENT-UC": "AGREGAR CITA",
    "ADDMEETING": "Add Meeting",
    "ADDPOD": "Agregar Rotación",
    "ADDPOD-UC": "AGREGAR ROTACION",
    "AFTERNOON": "TARDE",
    "AGENDA": "AGENDA",
    "AGENDA-LC": "Agenda",
    "ALLCUSTOMERS&LEADS": "TODOS LOS CLIENTES Y LÍDERES",
    "ANYTIME": "Sin horario",
    "AREYOUSUREYOUWANTTODELETETHISPOD": "Está seguro de eliminar esta Rotación?",
    "ATTENDEES": "Asistentes",
    "BIGGESTPOTENTIAL": "Mayor Potencial",
    "BIGGESTSALE": "Mayores Ventas",
    "CANCELAPPOINTMENT": "Cancelar cita",
    "CANCELDEFAULTOCCURRENCEMESSAGEFIRSTPART": "Este cliente sera removido de ",
    "CANCELDEFAULTOCCURRENCEMESSAGESECONDPART": "rotación. Está seguro que desea continuar?",
    "CANCELMEETING": "Cancelar reunión",
    "CANCELMEETINGMESSAGE": "¿Estás seguro de que deseas cancelar esta reunión?",
    "CANCELMEETINGSERIESMESSAGE": "¿Está seguro de que desea cancelar todas las reuniones de la serie seleccionada?",
    "CANCELOCCURRENCE": "Cancelar Cita",
    "CANCELOCCURRENCE-UC": "CANCELAR CITA",
    "CANCELOCCURRENCEMESSAGE": "Está seguro que desea cancelar esta cita?",
    "CANCELSERIES": "Cancelar Serie",
    "CANCELSERIES-UC": "CANCELAR SERIE",
    "CANCELSERIESMESSAGE": "Está seguro que desea cancelar todas las citas de la serie seleccionada?",
    "CANNOTASSIGNMORETHAN": "Cannot assign more than",
    "CANNOTUNASSIGNMORETHAN": "Cannot unassign more than",
    "CHANGEDEFAULTSERIESMESSAGE": "Cambios en esta serie removerán este cliente de",
    "CLEAROVERDUE": "Eliminar Citas Atrasadas",
    "CLEAROVERDUEMESSAGE": "Está seguro que quiere eliminar todas las citas atrasadas?",
    "CLEAROVERDUESUCCESS": "Citas atrasadas eliminadas exitosamente",
    "CLICK": "Click",
    "CLOSEAPPOINTMENT": "Cerrar Cita",
    "CLUSTERS": "Racimos",
    "COMMITTEDCALLS": "Llamadas Acordadas",
    "COMMITTEDVISITS": "Visitas Acordadas",
    "COMPLETEAPPOINTMENT": "Cerrar Cita",
    "COMPLETED": "Completada",
    "COMPLETEDCALLS": "Llamadas Completadas",
    "COMPLETEDV/C": "Completadas Visitas/Llamadas",
    "COMPLETEDVISITS": "Visitas Completadas",
    "CONFIRMEDV/C": "Confirmadas Visitas/Llamadas",
    "CONTACTPERSON": "NOMBRE DEL CONTACTO",
    "CUSTOMER": "CLIENTE",
    "CUSTOMERLEAD": "CLIENTE / PLAZO",
    "CUSTOMERS": "customers",
    "CUSTOMERS&LEADS": "CLIENTES Y LÍDERES",
    "DATE": "FECHA",
    "DAY": "Día",
    "DAYVIEW": "Vista de Día",
    "DELETEPOD-LC": "Eliminar",
    "DELETEPODMESSAGE": "Todos los clientes serán removidos de la Rotación pero sus otras citas seguirán existiendo. Está seguro que desea continuar?",
    "DETAILS": "DETALLES",
    "DRAGACUSTOMERHERE": "Arrastre un Cliente aquí",
    "DROPMULTIPLECUSTOMERFROMDIFFERENTPOD": "You cannot drag and drop multiple customers by selecting customers in different rotations and customer list",
    "DURATION": "DURACIÓN",
    "EDITAPPOINTMENT": "EDITAR CITA",
    "EDITAPPOINTMENT-LC": "Editar Cita",
    "EDITMEETING": "Modificar reunión",
    "EDITOCCURRENCE": "Editar Cita",
    "EDITPOD": "EDITAR ROTACION",
    "EDITPOD-LC": "Editar",
    "EDITPOD-TITLE-LC": "Editar Rotación",
    "EDITSERIES": "Editar Serie",
    "ENDDATE": "FECHA FINAL",
    "FROM-LC": "From",
    "HASBEENUPDATED": "ha sido actualizado",
    "HERE": "aquí",
    "ISASSIGNEDTO": "Asignado a",
    "ISUNASSIGNEDFROM": "ha sido des-asignado de",
    "LASTCOMMUNICATION": "Última comunicación",
    "LASTINBOUNDCALL": "Ultima llamada entrante",
    "LOCATION": "LOCATION",
    "LOCATION-LC": "Location",
    "MAXIMUMATTENDEESCANBE": "El máximo de asistentes puede ser",
    "MEETINGHASBEENDELETED": "La reunión ha sido eliminada.",
    "MEETINGHASBEENUPDATED": "La reunión ha sido actualizada",
    "MONTH": "Mes",
    "MORNING": "MAÑANA",
    "MYCUSTOMERS&LEADS": "MIS CLIENTES y PROSPECTOS",
    "MYROTATIONS": "MIS ROTACIONES",
    "NEWAPPOINTMENTHASBEENADDED": "Nueva cita ha sido agregada",
    "NEWMEETINGBEENADDED": "New meeting has been added.",
    "NEWPODHASBEENADDED": "La nueva Rotación has sido agregada",
    "NOAPPOINTMENTS": "Sin citas",
    "NOATTENDEE": "Ningún asistente",
    "NOCUSTOMERSFOUND": "Cliente no encontrado",
    "NOOTHERAPPOINTMENT": "Sin otras Citas",
    "NORECENTEVENTS": "Sin eventos recientes",
    "NORECENTOCCURRENCES": "Sin otras citas",
    "NOSCHEDULEDAPPOINTMENTS": "No hay citas en este período",
    "OCCURRENCEHASBEENDELETED": "La cita ha sido eliminada",
    "OCCURRENCESHASBEENDELETED": "La cita ha sido eliminada",
    "OCCURRENCESHAVEBEENDELETED": "Las citas han sido eliminadas",
    "ON-LC": "en",
    "ORGANIZER": "Organiser",
    "ORGANIZER-UC": "ORGANIZADOR",
    "ORIGNALLYPLANNEDON": "Originalmente planeado para",
    "OTHERAPPOINTMENTS": "OTRAS CITAS",
    "OTHERAPPOINTMENTS-LC": "Otras Citas",
    "OUTBOUNDCALL": "Llamada saliente",
    "OVERDUE": "ATRASADO",
    "OVERDUEDV/C": "Atrasadas Visitas/Llamadas",
    "PERIOD": "Período",
    "PLANNED": "Planificada",
    "PLANNEDCALLS": "Llamadas Planificadas",
    "PLANNEDVISITS": "Visitas Planificadas",
    "PLANNER": "Planificador",
    "PLANNER-UC": "PLANIFICADOR",
    "PLANNERPROFILE": "Reporte de Planificador",
    "PLANNERREPORT": "Reporte de Planificador",
    "POD": "Rotación",
    "PODDELETEWARNING": "El Cliente no pertenecerá a la Rotación pero sus otras citas seguirán existiendo",
    "PODHASBEENDELETED": "La Rotación ha sido eliminada",
    "PODHASBEENUPDATED": "La Rotación ha sido actualizada.",
    "PODNAME": "NOMBRE DE LA ROTACION",
    "PODS": "ROTACIONES",
    "PODS-LC": "Rotaciones",
    "POTENTIAL": "Potencial (8 Semanas)",
    "RECURINGAPPOINTMENT": "REPETICIONES",
    "REMOVECLUSTER": "Borrar Rotación",
    "REMOVEFROMPOD": "Remover de la Rotación",
    "REMOVEFROMPODMESSAGE": "Está seguro de eliminar este cliente de la Rotación?",
    "REPEATON": "REPETIR EN",
    "REPEATSEVERY": "REPITE CADA",
    "RESCHEDULE": "Reprogramar",
    "ROTATION_LC": "rotación",
    "RUN/SEQUENCE": "Run/Sequence",
    "RUNSEQUENCENUMBER": "Run/Sequence Number",
    "SALE": "Ventas (8 Semanas)",
    "SCHEDULE": "CALENDARIO",
    "SCHEDULE-LC": "Calendario",
    "SERIESHASBEENDELETED": "La serie ha sido eliminada",
    "SHOWWEEKENDS": "Mostrar Fin de Semana",
    "SINGLEAPPOINTMENTMESSAGE": "Usted está viendo una cita que es parte de una serie",
    "SOMETHINGWENTWRONG": "Lo sentimos! Algo ha salido mal! Por favor intente de nuevo.",
    "STARTDATE": "FECHA DE INICIO",
    "STARTTIME": "HORA DE INICIO",
    "SUBJECT": "Asunto",
    "SUBJECT-UC": "SUBJECT",
    "THEOCCURRENCEHASBEENUPDATED": "La cita ha sido actualizada",
    "THESERIESHAVEBEENUPDATED": "La serie ha sido actualizada",
    "THISISADEFAULTSCHEDULEFOR": "Esta es la cita predeterminada",
    "THISWEEK": "Esta semana",
    "TO-LC": "To",
    "TODAY": "Hoy",
    "TODAYSAPPOINTMENTS": "Citas de Hoy",
    "TOTLALCOMPLETED": "Total Completadas",
    "TOTLALPLANNED": "Total Planeadas",
    "TYPE": "TIPO",
    "UNCONFIRMEDV/C": "Sin Confirmar Visitas/Llamadas",
    "USER": "Usuario",
    "VIEW": "Vista",
    "VISIT": "Visita",
    "WEEK": "Semana",
    "WEEKVIEW": "Vista de Semana",
    "WORKWEEK": "Semana Laboral",
    "YOUCANNOTDELETETHELASTPOD": "No se puede eliminar la última Rotación",
    "YOURCUSTOMERS&LEADS": "SU CLIENTE Y LÍDER",
    "YOURPODS": "MIS ROTACIONES"
  },
  "PRODUCT": {
    "ALLPRODUCTS": "Todos los productos",
    "PREVIOSPURCHASES": "Compras anteriores"
  },
  "PRODUCTS": {
    "ADD": "AGREGAR\n ",
    "ADD-LC": "Añadir",
    "ADDEDTOTHEBASKET": "added to the basket",
    "ADDPRODUCT": "AGREGAR PRODUCTO",
    "ADDTOQUOTE": "Agregar a Cotización",
    "ALREADYINQUOTE": " Ya están en la cotización.",
    "AMOUNT": "CANTIDAD",
    "APPLY": "Aplicar",
    "BACKORDER-LC": "Pedido Pendiente",
    "BACKORDERS": "PEDIDOS ANTERIORES",
    "BASKETMARGIN": "Margen de la cesta",
    "BELOWMARGINLIMIT": "Los productos resaltados están por debajo del límite de margen.",
    "BROWSE": "Vistazo",
    "CANCEL": "Cancelar",
    "CANNOTHAVEQUANTITYMORETHAN": "cannot have quantity more than",
    "CATALOGUEPRICE": "Precio de catálogo",
    "CATALOGUEPRICE-UC": "PRECIO DEL CATÁLOGO",
    "CATEGORY": "CATEGORÍA",
    "CATEGORY-LC": "Categoría",
    "CHOOSEACATEGORY": "Elige una categoría",
    "CHOOSEASTATUS": "Elige un estado",
    "CHOOSEATYPE": "Elige un tipo",
    "CLAIM": "reclamo",
    "CLAIMBACK": "Solicitar la devolución",
    "CLAIMBACK-UC": "DEVOLUCION",
    "COMPETITORDOCUMENTATION": "DOCUMENTACIÓN DEL COMPETIDOR",
    "COMPETITORNAME": "NOMBRE DEL COMPETIDOR",
    "COMPETITORPRICE": "PRECIO DEL COMPETIDOR",
    "COMPETITORUOM": "COMPETIDOR UDM",
    "COST": " COSTO",
    "COST-LC": "Coste",
    "CUSTOMERPRICE": "PRECIO AL CLIENTE",
    "CUSTOMERREBATE": "Reembolso al cliente",
    "DAILY": "Diario",
    "DATASHEET": "Datasheet",
    "DATE": "Date",
    "DISCOUNT": "Descuento",
    "DISCOUNT-UC": "DESCUENTO",
    "DISCOUNTABLE": "DISCOUNTABLE",
    "ENTERCHARACTER": "Por favor, ingrese al menos un carácter.",
    "INCTAX": "IVA incluido",
    "LASTINVOICE": "LAST INVOICE",
    "LOWSTOCK": "Low stock",
    "MARGIN": "MARGEN",
    "MARGIN-LC": "Marge",
    "MARGINDOLLAR": "Dólar margen",
    "MAXLENGTH": "La longitud máxima para este campo es de 200 caracteres.",
    "MONTHLY": "Mensual",
    "NA": "N/A",
    "NOPREVIOUSPURCHASES": "NO PREVIOUS PURCHASES",
    "NOPREVIOUSPURCHASESFORDAYS": "Sin historial de compras durante [NoOfDays] días",
    "NOPREVIOUSPURCHASESMESSAGE": "the product hasn't been purchased in the last",
    "NOPRODUCTFOUND": "No se encontraron productos para este criterio de búsqueda.",
    "NOPRODUCTSFOUND": "NO PRODUCTS FOUND",
    "NOPRODUCTSFOUNDMESSAGE": "try searching by a product name, category, or brand to get started",
    "NOPRODUCTSSELECTED": "No hay productos seleccionados.",
    "NOTES": "NOTAS",
    "NOTIMPORTED": " no se importan a la cotización seleccionada.",
    "ONBACKORDER": "on Backorder",
    "ORDERHISTORY": "Order History",
    "ORDERQUANTITY": "Order Quantity",
    "PREVIOUSPURCHASENOTFOUNDMESSAGE": "No se encontró ningún producto que coincida con su consulta de búsqueda",
    "PREVIOUSPURCHASES": "COMPRAS ANTERIORES",
    "PRICE": "PRECIO",
    "PRICE-LC": "Precio",
    "PRICEEXP": "PRECIO EXP",
    "PRICINGNODE": "PRICING NODE",
    "PRIVATE": "Privado",
    "PRODUCT": "PRODUCTO",
    "PRODUCT-LC": "Product",
    "PRODUCTDETAILS": "PRODUCT DETAILS",
    "PRODUCTNA": "Información N/A",
    "PRODUCTS": "Products",
    "PRODUCTSEARCH": "Búsqueda de Producto",
    "PRODUCTSEARCH-UC": "PRODUCT SEARCH",
    "PRODUCTSEARCHMESSAGE": "search products by keyword or SKU",
    "PRODUCTSTATUS": "ESTADO DEL PRODUCTO",
    "PROMOTIONEND": "Fin de la promoción",
    "PROMOTIONPRICE": "PRECIO DE PROMOCIÓN",
    "PROMOTIONSTART": "Inicio de promoción",
    "PURCHASEHISTORY": "PURCHASE HISTORY",
    "PURCHASEORDER": "PEDIDO DE COMPRA",
    "QUANTITY": "CANTIDAD",
    "QUARTERLY": "Trimestral",
    "QUOTE": "COTIZACIÓN",
    "QUOTEPRICE": "Precio de cuota",
    "REBATE": "REEMBOLSO",
    "REMOVEDFROMTHEBASKET": "removed from the basket",
    "RESTRICTEDUOM": "UOM restringida",
    "SEARCH": "Buscar",
    "SEARCHPRODUCTS": "Search products",
    "SELECTALL": "Seleccionar todo",
    "SIMILARPRODUCTS": "Productos similares",
    "SOH": "SEM",
    "STATUS": "ESTADO",
    "STATUS-LC": "Estado",
    "STOCK": "VALORES",
    "SUBTOTAL": "Subtotal",
    "TAX": "IMPUESTO",
    "TAXGST": "Impuesto (VAT)",
    "TOTAL": "Total",
    "TYPE": "Tipo",
    "TYPE-LC": "Tipo",
    "UNITPRICE": "Unit Price",
    "UNKNOWNERROR": "An unknown error has occurred",
    "UNKNOWNERROROCCURRED": "Ocurrió un error desconocido",
    "UOM": "UDM",
    "UOMRESTRICTED": "Restricted UOM",
    "VENDORCODE": "VENDOR CODE",
    "VENDORCODECANNOTBEBLANK": "Vendor Code field cannot be blank",
    "WAREHOUSE": "ALMACÉN",
    "WEEKLY": "Semanal"
  },
  "PRODUCTTYPE": {
    "EXCLUSIVEBRAND": "Marca exclusiva"
  },
  "Print": "Imprimir",
  "Product is not available in the selected invoice or has been added already": "El producto no está disponible en la factura seleccionada o ya se ha agregado.",
  "Products": {
    "Total": "Total"
  },
  "QUOTES": {
    "ACCEPTBY": "ACCEPT BY",
    "ACCEPTED": "Aceptado",
    "ACCEPTEDDATE": "ACEPTADA",
    "ACCEPTEDFORCUSTOMER": "Aceptado para el cliente",
    "ACCOUNT": "CUENTA",
    "ACCOUNTS": "Cuentas",
    "ADDPRODUCTTOQUOTE": "Agregar productos a cotización.",
    "APPLY": "Aplicar",
    "APPROVED": "Aprobado",
    "APPROVERSEMAILADDRESS": "DIRECCIÓN DE CORREO ELECTRÓNICO DEL APROBADOR",
    "AREYOUSUREYOUWANTTOACCEPTTHISQUOTEFORCUSTOMER": "¿Está seguro de que desea aceptar esta cotización para el cliente?",
    "AREYOUSUREYOUWANTTODELETETHISQUOTE": "Seguro que desea eliminar esta cotización?",
    "ATT": "ATT",
    "CANCEL": "Cancelar",
    "CHANGECUSTOMERACCOUNTFROM": "Está a punto de cambiar de cuenta desde",
    "CHANGEREQUIRED": "Cambio requerido",
    "CHOOSEADATE": "Elige una fecha",
    "CHOOSEAEXPIRY": "Elige una caducidad",
    "CHOOSEANACCOUNT": "Elige una cuenta",
    "CHOOSEASTATUS": "Elige un estado",
    "CLEARPRICEEXPIREDONCLONE": "Al duplicar la cotización se borrará el campo Vencimiento del precio y el precio de la cotización cambiará al precio del cliente. Quieres proceder?",
    "CLONESUCCESSFUL": "Clon exitoso",
    "CONTINUE": "Continuar",
    "COULDNOTFINDACCOUNT": "Lo sentimos, no se pudo encontrar la cuenta seleccionada",
    "CREATEDBY": "CREADO POR",
    "CREATOR": "Creador",
    "CUSTOMER": "CLIENTE",
    "CUSTOMERAPPROVED": "Cliente aceptado",
    "CUSTOMERDECLINED": "Cliente rechazado",
    "DATE": "FECHA",
    "DATECREATED": "CREADA",
    "DATEMODIFIED": "MODIFICADA",
    "DRAFT": "Sequía",
    "EFFECTIVEDATE": "FECHA EFECTIVA",
    "EMAILSENTSALEREP": "Notificación por correo electrónico enviado representante de ventas.",
    "ENTERAVALIDDATE": "Ingrese una fecha válida",
    "ENTERVALIDAMOUNT": "Por favor ingrese una cantidad válida para el producto",
    "ENTERVALIDVENDORCODE": "Please enter valid vendor code for product",
    "EXCGST": "(Sin IVA)",
    "EXPIRED": "(Muerto)",
    "EXPIRED-UC": "(MUERTO)",
    "EXPIRES": "Vence",
    "EXPIRES-UC": "VENCE",
    "EXPIRY-TITLE": "EXPIRACIÓN",
    "EXPIRY-TITLE-LC": "Expiración",
    "EXPIRYDATE": "FECHA DE CADUCIDAD",
    "EXPORT": "Exportar",
    "FROM": "DE",
    "FROM-LC": "De",
    "IMPORTSUCCESSFUL": "Importación exitosa.",
    "INCLUDE/EXCLUDEEXPIRED": "INC./EXC. EXPIRADA",
    "INCLUDE/EXCLUDEEXPIRED-LC": "Inc./Ex. Expirada",
    "INVALIDEMAILADDRESS": "Dirección de correo electrónico no válida",
    "INVALIDFILEFORMAT": "Formato de archivo no válido, elija archivos .csv válidos",
    "LOCAL": "Local",
    "MESSAGE": "MENSAJE",
    "NAMEREFERENCETITLE": "Nombre, referencia, título",
    "NATIONAL": "Nacional",
    "NEW": "NUEVA",
    "NEW-LC": "Nueva",
    "NEWQUOTE": "Nueva cotización",
    "NO": "No",
    "NO-UC": "NO",
    "NOACCESS": "Usted no tiene permiso pata ver esta cotización.",
    "NOPERMISSION": "Sin autorización",
    "NOQOOTESFORTHESELECTEDCUSTOMER": "No hay cotizaciónes para el cliente seleccionado.",
    "NOQUOTEEXPORTED": "Ninguna cotización exportada",
    "NOQUOTESFOUNDFORTHISSEARCHCRITARIA": "No se encontraron cotizaciónes para este criterio de búsqueda",
    "OLDPRICE": "PRECIO ANTERIOR",
    "PACKSIZE": "Tamaño del paquete",
    "PENDING": "Pendiente",
    "PENDINGCUSTOMERAPPROVAL": "Pendiente de aprobación del cliente",
    "PREVIEWITHERE": "Vista previa aquí",
    "PRICE": "PRECIO",
    "PRICE FOR CPG": "PRECIO POR CPG",
    "PRICECHANGED": "Precio cambiado",
    "PRICEEXPIRY": "PRICE EXPIRY",
    "PRICEFORCPG": "PRECIO POR CPG",
    "PRICESQUOTEDAREEXCLUSIVEOFTAX": "Prices quoted are exclusive of GST",
    "PRICESTART": "PRICE START",
    "PRINTMESSAGE": "Al aceptar la cotización, usted acepta que el precio puede tardar entre 24 y 48 horas en activarse en su cuenta. Las compras previas a esta activación serán al precio anterior y pueden requerir que un Gerente de Cuenta acredite la diferencia cuando realice la compra.",
    "PRODUCT": "PRODUCTO",
    "QTY": "CANTIDAD",
    "QUOTE-LC": "Cotización",
    "QUOTEAPPROVED": "Presupuesto aprobado.",
    "QUOTEAUTOAPPROVED": "La cotización ha sido aprobada automáticamente.",
    "QUOTECREATOR": "COTIZADOR",
    "QUOTEDELETEFIRSTPART": "Citar ",
    "QUOTEDELETESECONDPART": " eliminado.",
    "QUOTEFOR": "COTIZACIÓN PARA",
    "QUOTEFORMAT": "FORMATO DE COTIZACIÓN",
    "QUOTEID": "ID DE COTIZACIÓN",
    "QUOTEPREVIEW": "Vista preliminar de la Cotización",
    "QUOTEPRODUCTS": "Quote products",
    "QUOTES": "Cotizaciónes",
    "QUOTES-UC": "COTIZACIONES",
    "REFERENCE": "REFERENCIA",
    "REMOVEDPRODUCTCODESMESSAGE": "no agregado a la cotización",
    "REMOVEDPRODUCTCODESMESSAGETOORDER": "product code(s) have been removed.",
    "RESAVEASDRAFTFOREXPIREDQUOTE": "Esta cita ha expirado. ¿Quieres volver a guardarlo como borrador?",
    "SALESPHONE": "TELÉFONO",
    "SALESREP": "REPRESENTANTE DE VENTAS",
    "SALESREPRESENTATIVE": "REPRESENTATE DE VENTAS",
    "SAVEASDRAFT": "Guardado como borrador.",
    "SAVEASPDF": "Save As PDF",
    "SEARCH": "Buscar",
    "SELECTED": "Seleccionado",
    "SELECTEFFECTIVEDATE": "Seleccionar fecha efectiva",
    "SENDINGAS": "ENVIANDO COMO",
    "SENDINGTO": "ENVIANDO A",
    "SENDTOPRICEINGTEAM": "Enviado al equipo de precios",
    "SENTFORAPPROVAL": "Enviado para su aprobación.",
    "SENTTOCUSTOMER": "Enviado al cliente",
    "SHOWPRICEINFORMATION": "Mostrar información de precios",
    "SIGNATURE": "Firma",
    "STATUS": "ESTADO",
    "STATUSES": "Estados",
    "SUBJECT": "ASUNTO",
    "SUBTOTAL": "Subtotal",
    "TAX": "Impuesto",
    "TAXGST": "Impuesto (VAT)",
    "THISFIELDCANNOTBEBLANK": "Este campo no puede estar en blanco",
    "TO": "A",
    "TO-LC": "A",
    "TO-SPACE": " a ",
    "TOTAL": "Total",
    "TOTAL-UC": "TOTAL",
    "UNSAVECHANGES": "No has guardado tu trabajo actual. Desea proceder y descartar?",
    "UOM": "UDM",
    "UPDATEPRODUCTTOQUOTE": "Producto actualizado.",
    "YES": "Sí",
    "YES-UC": "SI",
    "YOURCLIENTWILLRECEIVEALINKTOVIEW,ACCEPTORDECLINETHEESTIMATE": "Tu cliente recibirá un enlace para ver, aceptar o rechazar el presupuesto"
  },
  "Quote": {
    "Total": "Total"
  },
  "RESULTS": "results",
  "Remove Product": "Quitar producto",
  "SALES": {
    "ACCOUNT": "Cuenta",
    "AVERAGECREDITVALUE": "Valor de crédito promedio",
    "AVERAGEINVOICELINES": "Líneas promedio de factura",
    "AVERAGEINVOICEPIECES": "Piezas de factura promedio",
    "AVERAGEINVOICEVALUE": "Valor promedio de la factura",
    "AVERAGEMARGIN": "Margen promedio",
    "BIGGESTINVOICE": "Factura más grande",
    "BRAND": "MARCA",
    "CATEGORY": "Categoría",
    "CODE": "Código",
    "CREDITCOUNT": "Número de créditos",
    "CREDITLINERATIO": "Proporción de líneas de crédito",
    "CREDITLINES": "Líneas de créditos",
    "CREDITRATIO": "Proporción de créditos",
    "CURRENT": "(actual)",
    "CURRENTDATERANGE": "Período actual",
    "CURRENTMARGIN": "Margen Actual",
    "CURRENTSALES": "Ventas actuales",
    "CURRENTSELECTED": "Seleccionada",
    "CURRENTTOTAL": "Total Actual",
    "CURRENTTOTALSALES": "Ventas totales actuales",
    "DATERANGE": "Período",
    "DAYS": "días",
    "EIGHTWEEKS": "8 semanas",
    "EXPORT": "Exportar",
    "INVENTORY": "Inventario",
    "INVENTORYCATEGORY": "Categoría de inventario",
    "INVOICECOUNT": "Número de facturas",
    "LASTMONTHMARGIN": "Last Month Margin",
    "LASTMONTHSALES": "Ventas del último mes",
    "LASTMONTHTOTALMARGIN": "Margen total del último mes",
    "MARGIN": "Margen",
    "MONTHS": "meses",
    "MONTHTODATE": "Mes hasta la fecha",
    "NAME": "Nombre",
    "NOSALES": "SIN VENTAS",
    "NOSALESEXPORTED": "No se exportaron ventas",
    "NOSALESFOUNDMESSAGE": "No hay ventas en",
    "PREVIOUSMARGIN": "Margen Anterior",
    "PREVIOUSSALES": "Ventas anteriores",
    "PRODUCTCODE": "Código de producto",
    "PRODUCTDETAILS": "Detalles de producto",
    "PRODUCTLINE": "Línea de producto",
    "PRODUCTLINES": "Línea de producto",
    "PRODUCTLIST": "Reporte de Ventas",
    "PRODUCTS": "Producto",
    "QUANTITY": "Cantidad",
    "REPORT": "Reporte",
    "ROLLING": "Ultimos 8 días",
    "SALES": "VENTAS",
    "SALES-LC": "Ventas",
    "SALESCATEGORY": "Categoría de ventas",
    "SALESREPORTFILE": "VentasReporte",
    "SALESSTATS": "Estadísticas de ventas",
    "SMALLESTINVOICE": "Factura más pequeña",
    "THIRTEENMONTHS": "13 meses",
    "THREEMONTHS": "3 meses",
    "TOTAL": "Totale",
    "TOTALCREDITVALUE": "Valor de crédito total",
    "TOTALMARGIN": "Margen Total",
    "TOTALSALES": "Ventas Totales",
    "TWOWEEKS": "2 semanas",
    "UOM": "UOM",
    "WEEKS": "semanas"
  },
  "SCHEDULES": "Horarios",
  "SEARCH-CUSTOMER": {
    "ADDRESS": "DIRECCIÓN",
    "CUSTOMER": "CLIENTE",
    "CUSTOMERTYPE": "Tipo de cliente",
    "EVENT": "EVENTO",
    "EVENTTYPE": "Tipo de evento",
    "INDUSTRYGROUP": "grupo de la industria",
    "INDUSTRYTYPE": "Tipo de industria",
    "LOCAL": "Local",
    "NATIONAL": "Nacional",
    "NOCUSTOMERSFOUND": "No se encontraron clientes",
    "NORECENTEVENTS": "No hay eventos recientes",
    "PHONE": "TELÉFONO",
    "PHYSICALADDRESS": "DIRECCIÓN FÍSICA",
    "REP": "REPS",
    "REPCODE": "CÓDIGO REP",
    "SALES": "VENTAS",
    "SALES-8WEEKS": "VENTAS (8W)",
    "SALESGROUP": "Grupo de ventas",
    "TITLE": "Clientes",
    "TITLE-UC": "CLIENTES"
  },
  "SIDEMENU": {
    "ADMIN": "Administrador",
    "CONFIDENTIAL": "Confidencial",
    "CUSTOMERS": "Clientes",
    "EVENTS": "Eventos",
    "LEADS": "Prospectos",
    "PRODUCTS": "Productos",
    "QUOTES": "Cotizaciónes"
  },
  "SIGNALR": {
    "CLEARALL": "Limpiar Todo",
    "DOWNLOADS": "Descargas",
    "NONEWDOWNLOADS": "No hay nuevas descargas",
    "NONEWNOTIFICATIONS": "No hay notificaciones nuevas de esta sesión",
    "NOTAVAILABLE": "El servicio no está disponible por el momento. Actualiza la página o vuelve a intentarlo más tarde.",
    "NOTIFICATIONS": "Notificaciones"
  },
  "SLETTER": {
    "S": "'s"
  },
  "Save": "Ahorrar",
  "Selecting done will close off this complaint": "Si selecciona Listo, se cerrará esta tarea. ¿Desea continuar?",
  "Start Complaint": "Iniciar queja",
  "TITLE_MR": "Señor",
  "TITLE__K": "K",
  "TITLE__L": "L",
  "TITLE__MRS": "Mrs",
  "TITLE__MS": "Ms",
  "TITTLE__MR": "Mr",
  "TRANSACTIONS": {
    "ACCOUNT": "CUENTA",
    "ACCOUNT-LC": "Cuenta",
    "BRAND": "BRAND",
    "CHOOSEANACCOUNT": "Elija una cuenta",
    "CHOOSEATYPE": "Elija un tipo",
    "COPY": "copiar",
    "CREATEDDATE": "FECHA CREACIÓN",
    "CREDIT": "Credit",
    "CREDITDATE": "Credit date",
    "CREDITNO": "Credit No",
    "CUSTOMERCODE": "Customer Code",
    "CUSTOMERVATNO": "Customer VAT No",
    "DELIVERYDATE": "FECHA ENTREGA",
    "DELIVERYDATE-LC": "Delivery date",
    "DESCRIPTION": "DESCRIPTION",
    "DISCOUNT": "DISCOUNT",
    "EMAIL": "Email",
    "FOR": "para",
    "FREIGHT": "FREIGHT",
    "INVOICE": "Número de facturas",
    "INVOICEDATE": "Número de facturas",
    "INVOICENO": "FACTURA NÚMERO",
    "INVOICENO-LC": "Número de facturas",
    "MINTHREECHARACTERS": "Minimum of 3 characters required for searching transactions.",
    "NOTRANSACTIONSFOUND": "NO TRANSACTIONS FOUND",
    "NOTRANSACTIONSFOUNDMESSAGE": "try searching by a transaction number or reference",
    "ORDER": "Order",
    "ORDERCOPY": "Order Copy",
    "ORDERDATE": "Order date",
    "ORDERNO": "Order No",
    "OTHERCHARGES": "OTHER CHARGES",
    "PACKSIZE": "PACK SIZE",
    "PLEASESEEATTACHED": "Por favor ver adjunto",
    "PRICE": "PRICE",
    "PRODUCTCODE": "PRODUCT",
    "QUANTITYSUPPLIED": "QUANTITY",
    "SUBTOTAL": "SUBTOTAL",
    "TAX": "GST",
    "TAXCREDITCOPY": "Credit Copy",
    "TAXINVOICECOPY": "Invoice Copy",
    "TOTAL": "TOTAL",
    "TRANSACTIONS": "Transacciones",
    "TRANSACTIONTYPE": "TIPO TRANSACCIÓN",
    "TRANSACTIONTYPE-LC": "Tipo de transacción",
    "TYPE": "TIPO",
    "UNITOFMEASURE": "UOM",
    "UNITPRICE": "UNIT PRICE",
    "WEBORDER": "Web/Order",
    "WEBORDERREF": "Web/Order Ref",
    "YOURORDER": "Your Order",
    "YOURORDERREF": "Your Order Ref"
  },
  "Task Details": "Detalles de la tarea",
  "This will cancel the complaint and it cannot be reopened. Are you sure?": "Esto cancelará la queja y no podrá reabrirse. ¿Está seguro?",
  "This will close the complaint and it cannot be reopened. Are you sure?": "Esto cerrará la queja y no podrá reabrirse. ¿Está seguro?",
  "View": "Vista",
  "You cannot close complaint without closing all the tasks.": "No se puede cerrar la queja sin cerrar todas las tareas.",
  "You cannot close complaint without providing resolution.": "No puede cerrar una queja sin proporcionar una resolución.",
  "You have not saved your current work and will lose changes Do you want to proceed": "No has guardado tu trabajo actual y perderás los cambios. Quieres proceder?",
  "You have not saved your current work and will lose changes. Do you want to proceed?": "No has guardado tu trabajo actual y perderás los cambios. Quieres proceder?"
}